-2.81846913335e-05
-9.252052306e-06
4.2647432804e-05
0.000121456483403
0.000225415363166
0.000352982270812
0.000512479753712
0.000697617474269
0.000908445447941
0.00114936487174
0.00140990863664
0.00169237377329
0.00198979120125
0.00230091746782
0.00261952725293
0.0029406844482
0.00326193723687
0.0035771194727
0.00389022296014
0.00418850005799
0.00447413404692
0.00474969373579
0.00500570516399
0.005247917217
0.00546942091742
0.00567668666052
0.00586633921826
0.00603602730248
0.00618984159018
0.00633032673817
0.00645426950827
0.00656466356163
0.00666064606974
0.00674080813351
0.00681156904407
0.00687115337449
0.00692055746357
0.00695947836241
0.00698921962944
0.00700998954951
0.00702590516607
0.0070310956089
0.00703191909008
0.00702455224346
0.0070120260524
0.00699490780128
0.00697024401409
0.00694406116627
0.00691085952166
0.0068739143958
0.0068350666477
0.00679174332594
0.00674472054958
0.0066963590651
0.00664384378281
0.0065871906983
0.00653215440826
0.00647434564271
0.00641309384125
0.00635134199246
0.0062879292708
0.00622300015896
0.00615728931966
0.00609019388385
0.00602298204757
0.00595518435327
0.00588818647682
0.00581952882918
0.00574999414276
0.0056808594368
0.00561407951083
0.00554477839791
0.00547546229339
0.00540740621122
0.00534164316509
0.00527315225172
0.00520690094963
0.00514038264731
0.00507451576041
0.00501016690216
0.00494766314258
0.00488439295602
0.00481897487797
0.00475847266573
0.00469750559531
0.00463592472704
0.00457771595743
0.00451898516617
0.00446097673183
0.0044040512536
0.00434798219921
0.00429333036505
0.00423837217201
0.00418528848001
0.00413196022274
0.00408027024988
0.0040296332821
0.00398077638993
0.00393137684778
0.00388335970403
0.00383402613095
0.00378845442305
0.0037424953381
0.00369984760688
0.00365615411566
0.00361322011805
0.0035700517028
0.00352888469807
0.00348783974549
0.00344817378602
0.00340940371903
0.00337110201041
0.00333394052337
0.00329655154571
0.00326041027445
0.00322456396251
0.00319092054868
0.00315446988937
0.0031222376295
0.00308869090913
0.00305686653703
0.00302487094436
0.00299456089652
0.00296115775904
0.00293172078284
0.00290206663496
0.00287335620027
0.00284579288068
0.00281712636426
0.00278996829419
0.00276268630425
0.00273839831922
0.00271154601761
0.00268443696544
0.00266035771402
0.00263570049289
0.00261006320589
0.00258859461422
0.0025643221645
0.00253964676959
0.00251726038306
0.0024954300143
0.00247356698862
0.00245210763683
0.00243097084905
0.00240950461605
0.00239029409819
0.00236952976633
0.00234720874231
0.00233011706439
0.00231155367209
0.00229217256195
0.0022724649075
0.00225494914746
0.00223663108349
0.002218736039
0.00220117512924
0.00218464982413
0.00216666555766
0.00214858810886
0.00213278358611
0.00211650322447
0.00210100760291
0.00208523715725
0.00206990687073
0.00205372793014
0.00203684557712
0.00202396515131
0.00200902511329
0.00199455276141
0.00197798250171
0.00196420850066
0.00195115056712
0.00193719654526
0.00192441072832
0.00190910576155
0.00189696466708
0.00188243473702
0.00186985283696
0.00185694496728
0.00184480256931
0.00183240295558
0.00181992394573
0.00180679501641
0.00179408420637
0.00178179255802
0.00176957723175
0.00175762308709
0.00174696050362
0.00173488243181
0.00172392539071
0.00171223345901
0.00170031808748
0.0016894266527
0.00167826282899
0.00166691124325
0.00165560439661
0.00164503532412
0.00163392008773
0.00162484189769
0.00161314468816
0.00160155941449
0.00159069775375
0.00158130347442
0.00157007811372
0.00156126730706
0.00154917328964
0.0015405367208
0.00152974694811
0.00151995621253
0.00151194689905
0.00150084800564
0.00149248803138
0.00148213376161
0.00147230056011
0.00146314196607
0.00145466016887
0.00144479440614
0.00143593148671
0.00142621786602
0.00141799846877
0.00140984542831
0.00140172799914
0.00139058339841
0.00138303856042
0.00137384289893
0.00136570720348
0.0013583478565
0.00134917167519
0.00134091687017
0.00133313665727
0.00132354975019
0.00131553468857
0.00130751027736
0.00129992456521
0.00129176337125
0.00128267758539
0.00127663647226
0.00126956165563
0.00126007770868
0.00125280572827
0.0012454644987
0.00123713479479
0.00123044963408
0.00122207251142
0.00121441661832
0.00120794859773
0.00120164413773
0.00119199587513
0.00118533148781
0.00118015895245
0.0011715187386
0.00116413124691
0.00115792986308
0.00115139367261
0.00114228252413
0.00113688673627
0.00113025158157
0.00112375069902
0.00111462325267
0.00110918968584
0.00110319532425
0.00109623111946
0.00108922851583
0.00108215540142
0.00107654270562
0.00107059053262
0.00106223319945
0.00105843045916
0.00105074094655
0.00104514760907
0.00103668929949
0.00103085867637
0.00102413968016
0.00101829917361
0.00101234513812
0.0010067047747
0.00100117112726
0.000993359076323
0.000988638621979
0.000981047222901
0.00097595579205
0.000969368530522
0.000963625888507
0.000959048694517
0.000951973955212
0.000946264407469
0.000942108031872
0.000934661504108
0.000928962834335
0.0009229966674
0.000918984761419
0.000913370308524
0.000906742036475
0.000901959790153
0.000895021992187
0.000890750393074
0.000884939002781
0.000878523534761
0.000874051979082
0.000868699728333
0.000864214836448
0.000859167495331
0.000852252887158
0.000848675389466
0.000842017495784
0.000837519026797
0.000831901318648
0.000826521293908
0.000822074103721
0.000816416251757
0.00081393453882
0.000808556450541
0.00080284025929
0.000798770814977
0.000792847901742
0.000787985404762
0.000782982840054
0.000780689740847
0.000775406065248
0.000769818137492
0.000768105892368
0.000760449909048
0.000756864126092
0.000753296415722
0.000748271009554
0.000743405310713
0.000740895095935
0.000735115415457
0.000729419775309
0.00072686585234
0.000722353370667
0.000718174315221
0.000715406886421
0.000708769518897
0.00070436132201
0.000700741106572
0.000696925055466
0.000692511700227
0.000687759637132
0.00068532584255
0.000679212613039
0.000675386883013
0.000673809233088
0.000666400465653
0.000662777807576
0.000660560639574
0.000656116115172
0.000652203726992
0.000647413224784
0.000643605396578
0.000640711926158
0.000636219880706
0.000632480758332
0.000629412157408
0.000625357028004
0.000620567721795
0.000617347872339
0.000612335642438
0.000609610683477
0.000607187696276
0.000602787131206
0.000600850077765
0.000596922859349
0.000592501815183
0.000588186549711
0.000585362643935
0.000581347805588
0.000578052544141
0.000574129083776
0.000570392069257
0.00056796898046
0.000565813250974
0.000560378578352
0.000558159547225
0.000554587527958
0.000550070118269
0.000546024107162
0.000544337642285
0.000539400019137
0.000538016286232
0.00053447963609
0.000530838153638
0.000528054027499
0.000524553830519
0.000521611365467
0.000517167802824
0.000514346238699
0.00051222405082
0.000509452745193
0.000506040690223
0.000503669401268
0.000499361274917
0.000498056421211
0.000494509833278
0.000490144062225
0.000489201723596
0.000484688344619
0.00048277734713
0.000478268423384
0.00047721709758
0.00047476852098
0.000470794701742
0.000467021319941
0.000465809378421
0.000462072016373
0.000461573010718
0.000456808206503
0.000454791825453
0.000452199062029
0.000449563756439
0.000446748576639
0.000443098217449
0.000440861771777
0.000438994434037
0.000435551990022
0.00043383430507
0.000431411811596
0.000426717706825
0.000425905463808
0.000421746584889
0.00042030117761
0.000417107054686
0.000415845431729
0.000411262635425
0.000409479348212
0.000407096698971
0.000404877480499
0.000401470901723
0.000401126449104
0.000398014014351
0.000394374925986
0.000393201386522
0.000390014889294
0.000388459039699
0.0003855888492
0.00038408718205
0.000380213766378
0.000378043177021
0.000377493951427
0.000374728687564
0.00037047805553
0.000369549800046
0.000368348682203
0.000363626183051
0.000363110722269
0.000360857336961
0.000358583930767
0.000356467189892
0.000354667559607
0.000352438209288
0.000350705116924
0.0003473762302
0.000347846552458
0.000344057560862
0.000342960203889
0.000340866711574
0.000337633407823
0.000336006586947
0.000334236555575
0.000331303840999
0.000330242788247
0.000327194516318
0.000326291341087
0.000324754070579
0.000322738123313
0.000320412325714
0.000318929274002
0.000317606818153
0.000315496698376
0.000312362636702
0.000311280695478
0.000309072008449
0.000307416233387
0.000305323980943
0.00030379477737
0.000301563967241
0.000300321683783
0.000298236848328
0.000296200028011
0.000294276405678
0.000292188208639
0.000291081722821
0.000289969867362
0.000288864632071
0.000285765467719
0.000284139659446
0.000281639948762
0.000281126608173
0.000279561772969
0.000277223796303
0.000276190747332
0.000272180511551
0.000272489014091
0.000270259044104
0.000269404754696
0.000266883567288
0.000265959928039
0.000264379819541
0.000262135156955
0.000260876357054
0.000259509001057
0.000257377787237
0.000256344127796
0.000255270363345
0.000254017873157
0.000251531344384
0.00025113976233
0.000248306994707
0.000246988402296
0.000245861245193
0.000243609417782
0.000242190237282
0.000241113761457
0.000239868846531
0.00023720915841
0.000237781776537
0.000234624671535
0.000234463180827
0.000231718486461
0.000229106283221
0.000229951407305
0.000229609190976
0.000226508171836
0.000224096664093
0.00022435859382
0.00022195482824
0.000221784986658
0.000219923220245
0.000219364994167
0.000216751843701
0.000215574235231
0.000214112298726
0.000212640649111
0.000210655198517
0.000211138773296
0.00021019323223
0.000209638857215
0.00020764360276
0.000206131494537
0.000204802566856
0.000203505246107
0.000201634317787
0.000201364597995
0.000199929277824
0.000199172743136
0.000197096065794
0.000196184613071
0.00019602747311
0.000193512770955
0.000192434420865
0.000191279989141
0.000190729204272
0.000188127723811
0.000188115077275
0.000186503045712
0.000185615698826
0.000185027997869
0.000183724564249
0.000181858253594
0.000179867834771
0.000177858711492
0.000178743870123
0.000179177553171
0.000177164476954
0.000175353359646
0.000172554666264
0.000173414419797
0.00017387996258
0.000172916261143
0.000170137136466
0.000169983744706
0.000168333556946
0.000168325104721
0.000166840087501
0.000166723936869
0.000166031817585
0.000163789174487
0.000163624336522
0.000162166206977
0.00016085500395
0.000161024526008
0.000158548591448
0.000157171748357
0.000155668873773
0.000155416342092
0.000155495457234
0.000154034535186
0.000153563204683
0.000154011510853
0.000152126070536
0.000150513023141
0.000150694642708
0.000149300635545
0.000148389075213
0.000147913427074
0.00014594937191
0.000145012889491
0.000145057804482
0.000143096502325
0.000141409390068
0.000142017031146
0.000141209122282
0.000140419382873
0.000139241565079
0.000137842065422
0.000138404531553
0.000136232059796
0.000134252533287
0.000135260703317
0.000135023577465
0.000133714394368
0.000132702802878
0.000133009556745
0.000131926548491
0.000130845016074
0.000128560639615
0.000128605007103
0.000128440532435
0.0001263525921
0.000125934014914
0.000125629500485
0.000123644101379
0.000124260469241
0.000121998659058
0.000123214021887
0.000121456720048
0.000121163794227
0.000120271309474
0.000119244391331
0.000118833016848
0.000117527624401
0.000118476329967
0.000116384992038
0.000116050750648
0.000115500302643
0.000113959543582
0.000112981772707
0.000114747154309
0.000112239861041
0.000112227682756
0.000110724956649
0.000111205990981
0.000109836790844
0.000109678060082
0.000110096385735
0.000108594015155
0.00010848613771
0.000106983626053
0.000106023534144
0.000105472206557
0.000105860712169
0.000103465776008
0.000104215974864
0.000102642799446
0.000102286984548
0.000103271860228
0.000100744165515
0.0001024508721
0.000100048381018
0.000100560408051
9.85099356417e-05
9.84942202339e-05
9.71024778976e-05
9.68583227607e-05
9.66607184196e-05
9.61828415877e-05
9.39637307194e-05
9.46204572629e-05
9.65514764318e-05
9.41764409106e-05
9.25761823529e-05
9.29691547208e-05
9.28171895205e-05
9.17149880003e-05
9.19776544859e-05
9.03814960121e-05
9.04793319504e-05
8.91282340025e-05
8.8284829453e-05
8.87039000805e-05
8.90860825893e-05
8.84396610081e-05
8.78591800861e-05
8.70941203633e-05
8.54032600062e-05
8.35808958163e-05
8.64913044063e-05
8.37375976507e-05
8.31133263077e-05
8.45838888483e-05
8.21879942762e-05
8.20052089119e-05
8.20416850523e-05
8.16035640179e-05
8.08973958523e-05
8.06873375956e-05
7.95755732217e-05
7.87255051288e-05
7.84620386281e-05
7.86561107753e-05
7.81774962596e-05
7.67152703264e-05
7.66844232219e-05
7.73249942981e-05
7.37663148885e-05
7.5986057462e-05
7.57333623741e-05
7.52556629424e-05
7.34480087343e-05
7.43414159038e-05
7.22432538346e-05
7.27246557054e-05
7.21590355993e-05
7.26674926678e-05
7.22354652342e-05
6.97247874173e-05
7.1634489163e-05
6.92817551575e-05
6.99378029689e-05
6.91077523744e-05
6.89237915761e-05
6.8843688835e-05
6.79373292479e-05
6.76779533704e-05
6.71898170897e-05
6.64122451196e-05
6.74834330699e-05
6.64480758406e-05
6.58247129387e-05
6.59246596263e-05
6.43190718692e-05
6.34012343602e-05
6.40852851961e-05
6.33576411529e-05
6.30287753046e-05
6.29344082825e-05
6.1311712617e-05
6.24392401687e-05
6.20597653352e-05
6.21841666841e-05
6.04006466179e-05
5.9123595275e-05
5.97973165042e-05
6.0584996485e-05
5.87542377197e-05
5.99461406719e-05
5.98587042624e-05
5.84692024227e-05
5.75972986613e-05
5.8001601727e-05
5.7815905352e-05
5.76333503486e-05
5.73115586197e-05
5.52541018124e-05
5.69295846026e-05
5.50337829683e-05
5.56553996204e-05
5.48736430228e-05
5.37286461267e-05
5.6004075602e-05
5.47442906901e-05
5.23591449833e-05
5.28102360591e-05
5.2836775802e-05
5.09640847228e-05
5.2268704784e-05
5.05456956819e-05
5.15344250547e-05
5.18626813097e-05
5.08717419917e-05
4.9376052178e-05
4.99868200474e-05
4.89742502683e-05
4.9054452193e-05
4.82278654942e-05
4.83736482654e-05
4.99272547357e-05
4.90225964096e-05
4.81571262595e-05
4.83589353252e-05
4.63845021026e-05
4.68419144818e-05
4.63234126313e-05
4.63201812895e-05
4.75337454532e-05
4.56660158073e-05
4.56069705321e-05
4.67122774049e-05
4.56103915983e-05
4.39080121882e-05
4.46701858776e-05
4.43879080457e-05
4.47909370896e-05
4.36579061988e-05
4.40876810336e-05
4.37752902492e-05
4.33613627549e-05
4.33374019428e-05
4.26614667664e-05
4.25151779849e-05
4.43268258317e-05
4.26432415735e-05
4.12345141003e-05
4.32114426744e-05
4.13902478881e-05
4.09281123543e-05
4.21509589252e-05
3.98402671025e-05
4.17688975693e-05
4.12453247311e-05
4.18794199437e-05
3.90998650622e-05
4.10545541064e-05
4.0068309202e-05
3.92996517119e-05
3.88893994477e-05
3.84340986882e-05
3.7993431076e-05
3.86594770652e-05
3.88645321779e-05
3.95959467381e-05
3.93617738119e-05
3.81091144286e-05
3.65609992093e-05
3.78193915984e-05
3.66943871988e-05
3.73167003494e-05
3.78021467172e-05
3.67443818539e-05
3.75545459438e-05
3.57730568309e-05
3.70537045249e-05
3.67372220265e-05
3.53681158825e-05
3.38234989769e-05
3.4861366967e-05
3.47910977376e-05
3.52737102176e-05
3.4760696217e-05
3.27691587237e-05
3.40921591445e-05
3.30130363585e-05
3.46853333148e-05
3.32961805277e-05
3.31745885304e-05
3.40777129228e-05
3.37444498337e-05
3.34208528222e-05
3.16617001881e-05
3.37733033956e-05
3.19516842898e-05
3.2028468233e-05
3.20403964914e-05
3.03596612241e-05
3.24361400784e-05
3.12774064009e-05
3.10052226449e-05
2.93222948375e-05
3.15307654517e-05
2.97655468325e-05
3.06319984747e-05
2.88089416033e-05
2.97223802467e-05
2.94817355742e-05
2.81873846146e-05
2.91048586694e-05
2.93327763181e-05
2.83894908397e-05
2.89974511697e-05
2.80335288299e-05
2.97641947483e-05
2.87808051779e-05
2.95061283269e-05
2.75494128844e-05
2.6988419078e-05
2.80984324775e-05
2.78051043398e-05
2.69051913067e-05
2.61732428751e-05
2.6994428788e-05
2.67875952227e-05
2.61261975174e-05
2.6044757833e-05
2.60027613507e-05
2.63731399033e-05
2.7611464408e-05
2.49884683011e-05
2.50949635813e-05
2.53604496691e-05
2.4962841638e-05
2.48452082664e-05
2.61264037962e-05
2.53571039532e-05
2.32014270217e-05
2.37848833647e-05
2.32136253067e-05
2.34452767816e-05
2.51775917697e-05
2.39419003408e-05
2.42835043768e-05
2.33017590448e-05
2.36969213886e-05
2.32012485026e-05
2.27231531943e-05
2.40263808067e-05
2.36234980621e-05
2.33996144516e-05
2.43656573593e-05
2.32451483793e-05
2.30076962391e-05
2.13165415232e-05
2.28997933051e-05
2.33041066225e-05
2.0670650668e-05
2.17300699636e-05
2.05419048753e-05
2.07310579236e-05
1.97091676642e-05
2.14799593217e-05
2.19945987101e-05
2.18424152166e-05
2.10552266304e-05
2.1837345782e-05
2.21167865988e-05
1.97008338879e-05
1.98969202494e-05
2.05060777932e-05
2.08263080607e-05
2.05720963462e-05
2.04420062345e-05
1.87945526835e-05
1.91507102175e-05
1.98540078659e-05
1.94567917479e-05
1.85713957171e-05
1.86301582223e-05
1.93903567662e-05
1.95831654156e-05
1.86068795185e-05
1.74541096996e-05
1.81233625764e-05
1.82588929549e-05
1.92224042608e-05
1.94468069175e-05
1.81587139341e-05
1.78110823219e-05
1.63031152589e-05
1.91390512526e-05
1.80226469664e-05
1.83163026725e-05
1.7739769855e-05
1.74425657305e-05
1.77513369081e-05
1.76458351077e-05
1.61809181246e-05
1.68832742142e-05
1.65416932892e-05
1.68275588851e-05
1.74937722909e-05
1.62716708328e-05
1.52209672929e-05
1.61288732709e-05
1.49539596749e-05
1.6168394103e-05
1.61602727578e-05
1.53498334898e-05
1.6005002538e-05
1.54475424537e-05
1.39176163525e-05
1.62734090024e-05
1.49024253935e-05
1.4270549102e-05
1.58254686787e-05
1.55708626646e-05
1.46846158277e-05
1.43924035356e-05
1.46247229448e-05
1.47480243179e-05
1.31917630206e-05
1.51585230297e-05
1.48739610619e-05
1.5137987457e-05
1.40338651042e-05
1.51231192112e-05
1.42098352151e-05
1.3815014198e-05
1.44023456794e-05
1.39811184412e-05
1.38480063151e-05
1.34907857808e-05
1.38419006311e-05
1.31821997178e-05
1.30320225101e-05
1.31234682784e-05
1.3270468444e-05
1.3683665311e-05
1.21108691803e-05
1.38739408533e-05
1.22311569316e-05
