6.6180613526e-09
5.64400090938e-09
7.52703291905e-09
2.070429261e-08
5.74046924142e-08
1.32184264668e-07
2.71718248414e-07
4.97781040994e-07
8.39911833009e-07
1.34016875945e-06
2.01180233637e-06
2.89479880284e-06
3.99730922895e-06
5.34084289454e-06
6.91730825504e-06
8.71249522199e-06
1.07151160636e-05
1.28815605859e-05
1.52289608476e-05
1.76480388074e-05
2.01308111787e-05
2.26803901381e-05
2.51862607649e-05
2.76759846384e-05
3.0055444702e-05
3.23706968816e-05
3.45628730667e-05
3.65867234782e-05
3.84695051135e-05
4.02286312288e-05
4.18137666044e-05
4.32517567565e-05
4.45203524214e-05
4.5595663996e-05
4.65517643885e-05
4.73653802297e-05
4.80455509068e-05
4.85831032612e-05
4.89970779849e-05
4.92844746054e-05
4.9505931552e-05
4.95764472928e-05
4.95862298718e-05
4.94806391348e-05
4.9301842039e-05
4.90602968073e-05
4.87127587088e-05
4.83459750877e-05
4.78827761784e-05
4.73714289681e-05
4.68371345279e-05
4.62441287358e-05
4.56055501092e-05
4.49530852008e-05
4.42492803526e-05
4.34980130137e-05
4.27741499608e-05
4.20203977389e-05
4.12289750085e-05
4.04383955215e-05
3.96350494413e-05
3.88204092121e-05
3.80051460617e-05
3.71822042441e-05
3.63663673172e-05
3.55526224299e-05
3.47572174986e-05
3.39523194085e-05
3.31458103287e-05
3.23536003427e-05
3.1599088981e-05
3.08244373304e-05
3.00589008854e-05
2.93176924314e-05
2.86093640442e-05
2.78808759593e-05
2.71861422054e-05
2.64968598564e-05
2.58232814536e-05
2.51731074317e-05
2.4549301548e-05
2.39271740966e-05
2.32918060474e-05
2.27122059957e-05
2.2134735518e-05
2.15587183583e-05
2.10218683719e-05
2.04871546973e-05
1.99662396967e-05
1.94606108066e-05
1.89688712812e-05
1.84969629104e-05
1.80262923748e-05
1.75798374882e-05
1.71358139007e-05
1.67110913385e-05
1.62995616072e-05
1.59072858847e-05
1.55164676473e-05
1.5140940662e-05
1.47597565863e-05
1.44119595473e-05
1.4065506473e-05
1.37472313226e-05
1.34263101333e-05
1.31135833828e-05
1.28025209495e-05
1.25108021278e-05
1.22225192716e-05
1.19466715491e-05
1.16811044066e-05
1.1420629681e-05
1.11713096008e-05
1.09228344435e-05
1.06857592189e-05
1.04530756804e-05
1.02367554993e-05
1.00058178258e-05
9.80299026538e-06
9.59418643585e-06
9.39815206513e-06
9.20401515867e-06
9.02095135543e-06
8.82185268089e-06
8.64774811393e-06
8.47464257029e-06
8.30927311633e-06
8.1509734849e-06
7.98767802753e-06
7.83526846055e-06
7.68372229083e-06
7.55003181975e-06
7.40437840919e-06
7.25762269891e-06
7.12859819299e-06
6.99781539199e-06
6.86351258e-06
6.75148915586e-06
6.62628373297e-06
6.50042565734e-06
6.38664339131e-06
6.27778336356e-06
6.16831336615e-06
6.06276488373e-06
5.95909692509e-06
5.85542903286e-06
5.76329249753e-06
5.66355534323e-06
5.55831988886e-06
5.47782887202e-06
5.39176392412e-06
5.3031806971e-06
5.21291131869e-06
5.1333664078e-06
5.05024860712e-06
4.97100766928e-06
4.89308451156e-06
4.82020028168e-06
4.74184781029e-06
4.66383664192e-06
4.59538354138e-06
4.52640838934e-06
4.46034916339e-06
4.39432778756e-06
4.33035901106e-06
4.26329144864e-06
4.19414493811e-06
4.14208064482e-06
4.08165480024e-06
4.02269379649e-06
3.95663536032e-06
3.90232211949e-06
3.85053421896e-06
3.79635897982e-06
3.74627160735e-06
3.6879788825e-06
3.64162128447e-06
3.58598031123e-06
3.53870620656e-06
3.49025415451e-06
3.44573678248e-06
3.39926188884e-06
3.35365850142e-06
3.30595066538e-06
3.25974887156e-06
3.21583980538e-06
3.17226488014e-06
3.12965961791e-06
3.09292945743e-06
3.05098758597e-06
3.01214749034e-06
2.97221372324e-06
2.93122373435e-06
2.89422005515e-06
2.85660640605e-06
2.81812162072e-06
2.78048250518e-06
2.7454351879e-06
2.70874102006e-06
2.67872157537e-06
2.64118663133e-06
2.60324556951e-06
2.56905558635e-06
2.5392426749e-06
2.50342959847e-06
2.4757542664e-06
2.43809811016e-06
2.41096607485e-06
2.37822904368e-06
2.34730721469e-06
2.32314457869e-06
2.28949985866e-06
2.26475507259e-06
2.23312979197e-06
2.20436951097e-06
2.1766846512e-06
2.15244316096e-06
2.12322560465e-06
2.09739489659e-06
2.06940736323e-06
2.0461559065e-06
2.02268872609e-06
1.99976084511e-06
1.96820472761e-06
1.94726153327e-06
1.92197950613e-06
1.89943236833e-06
1.87838806859e-06
1.85381188177e-06
1.8321194827e-06
1.81094529951e-06
1.78491215379e-06
1.76381759506e-06
1.74245778143e-06
1.72248425457e-06
1.70170144254e-06
1.67772106889e-06
1.66231638429e-06
1.64418387375e-06
1.6194030227e-06
1.60117906062e-06
1.58309886345e-06
1.56252521847e-06
1.54586947819e-06
1.52485231394e-06
1.50594313918e-06
1.49028809096e-06
1.47527351587e-06
1.45173045545e-06
1.4355992113e-06
1.4232529576e-06
1.40280374526e-06
1.38582874065e-06
1.37137511117e-06
1.35617236791e-06
1.33497983808e-06
1.32269260397e-06
1.30782734953e-06
1.29292745719e-06
1.27223919394e-06
1.25977284295e-06
1.24674773592e-06
1.23176461856e-06
1.21578815004e-06
1.20028770883e-06
1.18810156658e-06
1.17485615522e-06
1.15780593261e-06
1.14866641631e-06
1.13269037576e-06
1.12109420476e-06
1.10356821751e-06
1.09127236898e-06
1.0770174978e-06
1.06566842042e-06
1.05263716091e-06
1.04205516709e-06
1.03015784302e-06
1.01472312654e-06
1.00547071512e-06
9.90515422816e-07
9.80262349744e-07
9.67020331746e-07
9.56325468299e-07
9.47233796916e-07
9.33475956638e-07
9.22445672028e-07
9.14644668668e-07
9.00853233241e-07
8.89680772134e-07
8.78283973811e-07
8.70711268554e-07
8.6060083467e-07
8.48770406395e-07
8.39313659273e-07
8.27420110063e-07
8.19331595078e-07
8.08785681875e-07
7.97008666594e-07
7.89255248951e-07
7.80070837315e-07
7.71821785239e-07
7.62861928638e-07
7.51098550309e-07
7.45211458886e-07
7.33662849143e-07
7.25711089615e-07
7.16394093378e-07
7.07749963338e-07
7.00227329656e-07
6.90806781313e-07
6.86305548503e-07
6.77797983315e-07
6.68299899833e-07
6.61674019273e-07
6.52067470829e-07
6.447881407e-07
6.36524756617e-07
6.32393443099e-07
6.24475129943e-07
6.16147706231e-07
6.12966886025e-07
6.01235401668e-07
5.95549967132e-07
5.89929936914e-07
5.82690320576e-07
5.75427869761e-07
5.71149705685e-07
5.62865534743e-07
5.54522397826e-07
5.5078407983e-07
5.43644445727e-07
5.37886673575e-07
5.33820543566e-07
5.24084737323e-07
5.18008362952e-07
5.12833949261e-07
5.0703755412e-07
5.01115946823e-07
4.9465060059e-07
4.90984204029e-07
4.83043227265e-07
4.77012927088e-07
4.75080706487e-07
4.64985976113e-07
4.60281993896e-07
4.57039084548e-07
4.51066304441e-07
4.45959009158e-07
4.39648136675e-07
4.34907985925e-07
4.30800439108e-07
4.24996626526e-07
4.20016695063e-07
4.15884565457e-07
4.10982449307e-07
4.05196935167e-07
4.00937149966e-07
3.9438267214e-07
3.91245256825e-07
3.87981671573e-07
3.82982140817e-07
3.8026650221e-07
3.76034532985e-07
3.7012813962e-07
3.65229917386e-07
3.61868761424e-07
3.57028275912e-07
3.53306250686e-07
3.48594916966e-07
3.44098128565e-07
3.41207774795e-07
3.38427715539e-07
3.32762782628e-07
3.29961770372e-07
3.26103384876e-07
3.21076498831e-07
3.16197247183e-07
3.14605522562e-07
3.09512562666e-07
3.07437846905e-07
3.03753502906e-07
2.99684968665e-07
2.96805687074e-07
2.92875993119e-07
2.8981706973e-07
2.85162143291e-07
2.81855529937e-07
2.79958790459e-07
2.76804139906e-07
2.73591925736e-07
2.71195545227e-07
2.66649026522e-07
2.65619580864e-07
2.61739866191e-07
2.57294528221e-07
2.56451079736e-07
2.51792986105e-07
2.5031726994e-07
2.45013008668e-07
2.44607809096e-07
2.42323802821e-07
2.38288904884e-07
2.34657246746e-07
2.33408452452e-07
2.29991833878e-07
2.29268953961e-07
2.24915130367e-07
2.22971033803e-07
2.20493281855e-07
2.18578421433e-07
2.15888379192e-07
2.12056353096e-07
2.10423832024e-07
2.08546144586e-07
2.05467839688e-07
2.03942817639e-07
2.01797219661e-07
1.97447167177e-07
1.96832632329e-07
1.92986745667e-07
1.92108848256e-07
1.89163725969e-07
1.88142281052e-07
1.84365956599e-07
1.82647408275e-07
1.80415828786e-07
1.78933655675e-07
1.76074595624e-07
1.75731417386e-07
1.73341836867e-07
1.70273454724e-07
1.69194163176e-07
1.67135908286e-07
1.65426756259e-07
1.62982411376e-07
1.61851936791e-07
1.59048224905e-07
1.57224112546e-07
1.56744665649e-07
1.54426184429e-07
1.51590503007e-07
1.50758810613e-07
1.49680326741e-07
1.46202529191e-07
1.45678229972e-07
1.44455084484e-07
1.42487731914e-07
1.40913192978e-07
1.39835336741e-07
1.38018886498e-07
1.36545068588e-07
1.34221168377e-07
1.34589877495e-07
1.32169079229e-07
1.31014941053e-07
1.29923294702e-07
1.27692306835e-07
1.26176882298e-07
1.25413496642e-07
1.23624986503e-07
1.22533399962e-07
1.20626700352e-07
1.19902241666e-07
1.19085644741e-07
1.17455704901e-07
1.1599963483e-07
1.1493536844e-07
1.14327481654e-07
1.12845560538e-07
1.10716470916e-07
1.1012322329e-07
1.08598899982e-07
1.07566557542e-07
1.06181456261e-07
1.05237899226e-07
1.03898169086e-07
1.03040046964e-07
1.01586747083e-07
1.00247933446e-07
9.93132026512e-08
9.78607979526e-08
9.7203482838e-08
9.63693663365e-08
9.59237216631e-08
9.42730438297e-08
9.31778040117e-08
9.1425740058e-08
9.12903600194e-08
9.0281859613e-08
8.89853303886e-08
8.82534052397e-08
8.6087539383e-08
8.61300028032e-08
8.49996524409e-08
8.42499524376e-08
8.29339805564e-08
8.28363818855e-08
8.17965151669e-08
8.01656491472e-08
7.9728873394e-08
7.92763875798e-08
7.8019766228e-08
7.73113803384e-08
7.67305323088e-08
7.60671127692e-08
7.45807036436e-08
7.44743212391e-08
7.30086335206e-08
7.21999802328e-08
7.17420700993e-08
7.05703838175e-08
6.97460080167e-08
6.93457481199e-08
6.87245819366e-08
6.71166576001e-08
6.76745841051e-08
6.61932760708e-08
6.60523456444e-08
6.44814542891e-08
6.34303354775e-08
6.38245229252e-08
6.38121449359e-08
6.21605566613e-08
6.10046771774e-08
6.11951295242e-08
6.01788405527e-08
6.01791499554e-08
5.91641724829e-08
5.88954822793e-08
5.77315204634e-08
5.72041602408e-08
5.64789674778e-08
5.58311866173e-08
5.49989496784e-08
5.52088714885e-08
5.47423304819e-08
5.46140036341e-08
5.37334568136e-08
5.27928124037e-08
5.25323606152e-08
5.1737102439e-08
5.11905959494e-08
5.09726169934e-08
5.0400508999e-08
5.01576188114e-08
4.9166615299e-08
4.87230846882e-08
4.85449237471e-08
4.77775125691e-08
4.72707978507e-08
4.65704983156e-08
4.66450940522e-08
4.56418745188e-08
4.544547517e-08
4.4885504538e-08
4.46674544326e-08
4.44621352687e-08
4.39875830225e-08
4.30298932488e-08
4.20341882243e-08
4.15990812514e-08
4.19176715755e-08
4.21305054615e-08
4.12256421556e-08
4.06240393682e-08
3.96340330164e-08
4.00164679255e-08
4.01939048245e-08
3.96083317853e-08
3.87606645713e-08
3.88295463395e-08
3.82111871257e-08
3.79545925999e-08
3.76531553058e-08
3.75218974519e-08
3.70066855916e-08
3.63933697062e-08
3.64873253851e-08
3.56587603855e-08
3.54416474821e-08
3.54206409227e-08
3.45197199038e-08
3.43985794341e-08
3.35862740464e-08
3.3394989864e-08
3.38106592656e-08
3.29108556603e-08
3.28558821832e-08
3.30181618777e-08
3.25188192856e-08
3.20785676686e-08
3.19431522097e-08
3.14427950423e-08
3.10566949864e-08
3.09187816268e-08
3.05996811644e-08
3.02724094017e-08
3.00551385835e-08
2.9487796974e-08
2.92122320484e-08
2.89667060995e-08
2.87622472088e-08
2.85828248227e-08
2.83929652932e-08
2.78273248908e-08
2.79570210367e-08
2.73276737201e-08
2.6784719325e-08
2.71521659434e-08
2.6866381277e-08
2.65906724338e-08
2.63434815187e-08
2.64406432806e-08
2.585128354e-08
2.58300653562e-08
2.52318653663e-08
2.50575412444e-08
2.5197941522e-08
2.4514198124e-08
2.4641373409e-08
2.43736349919e-08
2.38364911727e-08
2.40126583122e-08
2.33855986016e-08
2.37483416876e-08
2.32355371235e-08
2.30599771667e-08
2.27371856663e-08
2.25846462621e-08
2.27076919849e-08
2.20812010099e-08
2.23771473083e-08
2.18745158862e-08
2.18483152833e-08
2.16458846232e-08
2.13412252805e-08
2.09939620228e-08
2.1572409317e-08
2.10253207167e-08
2.06870998019e-08
2.0497207848e-08
2.05317502095e-08
2.03346637869e-08
2.02816795858e-08
2.02178888642e-08
2.00151605005e-08
2.00285618867e-08
1.95623826856e-08
1.92149509459e-08
1.90123534933e-08
1.91445833544e-08
1.87855698439e-08
1.8777532594e-08
1.85770485636e-08
1.85095224267e-08
1.84240961009e-08
1.82690900236e-08
1.86346580444e-08
1.78755437447e-08
1.80991572077e-08
1.77052269494e-08
1.76906516799e-08
1.73810657747e-08
1.75092701283e-08
1.72759658752e-08
1.70609821314e-08
1.67315054008e-08
1.67354977599e-08
1.71908627898e-08
1.67068398325e-08
1.65140777544e-08
1.64719440774e-08
1.64716526553e-08
1.61708354364e-08
1.638163574e-08
1.610694498e-08
1.60265059025e-08
1.57703642014e-08
1.56848239588e-08
1.56755029473e-08
1.57809627542e-08
1.55051666803e-08
1.53165493646e-08
1.54185074123e-08
1.50613002079e-08
1.45672967354e-08
1.53074646467e-08
1.47843513542e-08
1.45114037551e-08
1.47479117024e-08
1.44058179037e-08
1.43207510331e-08
1.43769581582e-08
1.41695276121e-08
1.4396630966e-08
1.40201297306e-08
1.39823306129e-08
1.36980688029e-08
1.35730326233e-08
1.37754485726e-08
1.35860961968e-08
1.35741083748e-08
1.30732301969e-08
1.34094755777e-08
1.29086603871e-08
1.30252890945e-08
1.32111449659e-08
1.30843513261e-08
1.27125563636e-08
1.28903509529e-08
1.2442408626e-08
1.27810274892e-08
1.26151528696e-08
1.25025600541e-08
1.27144951692e-08
1.23462648838e-08
1.22768381601e-08
1.20893794182e-08
1.20934965141e-08
1.18828055002e-08
1.19628492287e-08
1.1893842004e-08
1.18004918582e-08
1.19372598243e-08
1.1572267727e-08
1.16621385523e-08
1.19216473601e-08
1.14611033767e-08
1.15103623243e-08
1.12785766184e-08
1.13025892409e-08
1.11371751374e-08
1.12298458697e-08
1.11379054294e-08
1.13221947e-08
1.1009352499e-08
1.0940451265e-08
1.09083964524e-08
1.08857809447e-08
1.09495481468e-08
1.08056870972e-08
1.0653585705e-08
1.04451903755e-08
1.0800033559e-08
1.04975345461e-08
1.06965665003e-08
1.07467773285e-08
1.04070611669e-08
1.0386799518e-08
1.04061675248e-08
1.0361020491e-08
1.04140902657e-08
1.03608197186e-08
9.95017205813e-09
1.00604483797e-08
1.00288336728e-08
1.00026535659e-08
1.01349125569e-08
9.71818334996e-09
9.94732915136e-09
9.89290180522e-09
9.65157558361e-09
9.63108610328e-09
9.76203075354e-09
9.38113419002e-09
9.54408408879e-09
9.54097736696e-09
9.53844229591e-09
9.66882141283e-09
9.45032088875e-09
9.23819176847e-09
9.31090058155e-09
9.29802067378e-09
9.14076007196e-09
9.08477356424e-09
8.98399071144e-09
9.11957507417e-09
9.15039918445e-09
9.05101055117e-09
9.11761558913e-09
8.80897889426e-09
8.83971814296e-09
8.78428078016e-09
8.94304724391e-09
8.87213723551e-09
8.8779128555e-09
8.7348344732e-09
8.82328647061e-09
8.80055253696e-09
8.61166680549e-09
8.66391326749e-09
8.70290774136e-09
8.65822107288e-09
8.58760604694e-09
8.66509630423e-09
8.46950710209e-09
8.57379061457e-09
8.43149081115e-09
8.44197731274e-09
8.36942855326e-09
8.56561283448e-09
8.44785525371e-09
8.36482080084e-09
8.53492298123e-09
8.41194996143e-09
8.34556762714e-09
8.37977759958e-09
8.22595535635e-09
8.46789070099e-09
8.31966577792e-09
8.52481302892e-09
8.10579284964e-09
8.26281466269e-09
8.23353647345e-09
8.094296048e-09
8.06220351759e-09
8.0737223433e-09
8.14731069764e-09
8.16788030136e-09
8.15893789364e-09
8.12199656636e-09
8.03222014894e-09
7.91492655316e-09
7.91543488728e-09
7.78869313546e-09
8.01294707152e-09
8.03785470134e-09
7.90046956915e-09
7.87379596147e-09
7.94228116336e-09
7.76221510059e-09
7.94692410203e-09
7.74313099078e-09
7.72043716012e-09
7.7952435852e-09
7.79625656943e-09
7.77390356173e-09
7.66243314751e-09
7.68306584182e-09
7.57602460244e-09
7.32417733317e-09
7.56046127392e-09
7.63116854525e-09
7.56631361326e-09
7.57575298836e-09
7.66415793945e-09
7.62950164714e-09
7.60124578313e-09
7.54450286446e-09
7.46132202563e-09
7.36779839163e-09
7.49870229077e-09
7.39453234651e-09
7.33094888707e-09
7.55911156939e-09
7.39380390819e-09
7.29859024842e-09
7.26450396253e-09
7.40227459798e-09
7.27947790288e-09
7.43577482835e-09
7.11690484586e-09
7.29901065764e-09
7.31404906787e-09
7.036081862e-09
7.23772061915e-09
7.19132302463e-09
7.1287026017e-09
7.09121327841e-09
7.07286367203e-09
7.16349009964e-09
7.14166410049e-09
7.2526128467e-09
6.96600145388e-09
6.92633598977e-09
7.13058564293e-09
7.23605048112e-09
7.03881780368e-09
7.01893502938e-09
6.95124333621e-09
6.8034935918e-09
6.99704872546e-09
6.92311123107e-09
6.81088842002e-09
6.88950813889e-09
7.0488987041e-09
6.98410473211e-09
6.77300464362e-09
6.82611310284e-09
6.90669646872e-09
6.73857307231e-09
6.96047833903e-09
6.73983192228e-09
6.65284545382e-09
6.8774644008e-09
6.70077880052e-09
6.8803455682e-09
6.94457370701e-09
6.83102554951e-09
6.84444462067e-09
6.80026616311e-09
6.7662002976e-09
6.71891107342e-09
6.61365781061e-09
6.82416866797e-09
6.62235326054e-09
6.72188640598e-09
6.80782087245e-09
6.79948161987e-09
6.56025110969e-09
6.68395560947e-09
6.74484633276e-09
6.81893201204e-09
6.47732515046e-09
6.72974175017e-09
6.49367300059e-09
6.44720702537e-09
6.57821542624e-09
6.77266452166e-09
6.5839064425e-09
6.63529215702e-09
6.57864502605e-09
6.58892028629e-09
6.57198550278e-09
6.53376743828e-09
6.46252457997e-09
6.47522257461e-09
6.50591625033e-09
6.65084037958e-09
6.49958084798e-09
6.52078150668e-09
6.45531905344e-09
6.39059806684e-09
6.41923933699e-09
6.5945160343e-09
6.32146294076e-09
6.48366859779e-09
6.61417929263e-09
6.36490977769e-09
6.33148400672e-09
6.35175564351e-09
6.39006923562e-09
6.49325181709e-09
6.60966921487e-09
6.32931351441e-09
6.30968188481e-09
6.35616357823e-09
6.35634526032e-09
6.14017892974e-09
6.46601609891e-09
6.32503701873e-09
6.40945158309e-09
6.20216307334e-09
6.41871256709e-09
6.32231705074e-09
6.30370115074e-09
6.39518847486e-09
6.3499397162e-09
6.4437770458e-09
6.18749429086e-09
6.3546818924e-09
6.32901169648e-09
6.17885584165e-09
6.34255169676e-09
6.35211193863e-09
6.17490965855e-09
6.34039156235e-09
6.31315188377e-09
6.34445107613e-09
6.24401391578e-09
6.33632484236e-09
6.31602988567e-09
6.23635806172e-09
6.22565158882e-09
6.09626731846e-09
6.09939233031e-09
6.42911586733e-09
6.19921322426e-09
6.14517353758e-09
6.32998759594e-09
6.05561658324e-09
6.16989290561e-09
6.25884781782e-09
6.27652377895e-09
6.17201602071e-09
6.11178062323e-09
6.28595628128e-09
5.99646560996e-09
6.133103799e-09
6.1553685962e-09
6.14224583102e-09
6.00330142551e-09
6.04597703869e-09
6.06048572923e-09
6.02431824955e-09
6.0360226119e-09
6.20246606446e-09
6.14171261512e-09
6.11322673976e-09
