-1.1066712543e-05
-4.38920868665e-06
1.5925741788e-05
4.96307459173e-05
9.60915483197e-05
0.000156365836594
0.000232104421859
0.000321119505079
0.000428578142842
0.000548456967503
0.000685134432947
0.000836103667559
0.000997350884192
0.00116976320899
0.00134907246784
0.00153511558418
0.00172630728669
0.00192019766034
0.00211297750519
0.00230528434103
0.0024948500962
0.00268141044166
0.00285853877075
0.00303313072407
0.00319999599346
0.00336085783239
0.00351324534392
0.00365708132063
0.00379217437364
0.00392079461658
0.00403961190322
0.00415093640743
0.00425454914951
0.00435176183649
0.00444026234757
0.0045221032111
0.00459742859583
0.00466766584201
0.00472944585087
0.00478886074693
0.00483893176572
0.00488629847088
0.00492920291271
0.00496703865808
0.00499799097252
0.00502620034637
0.0050513767504
0.00507241670739
0.00508884867614
0.00510127876692
0.0051137365645
0.00511899277958
0.00512410233227
0.00512588802634
0.00512506736417
0.00512088352712
0.00511563438174
0.00510791746451
0.00509824677491
0.00508597025413
0.0050717308628
0.00505665291899
0.00504024711403
0.00502196735884
0.00500163833737
0.00498055425396
0.00495975819093
0.00493751790843
0.00491096954646
0.00488794171745
0.00486147125578
0.00483541805694
0.00480787649069
0.00478132762539
0.00475239372746
0.00472303302379
0.00469412250016
0.00466595045602
0.00463713589844
0.0046055700399
0.00457536713668
0.00454533892481
0.00451363014343
0.00448424218765
0.00445248541565
0.00442154481276
0.00439064152679
0.00436029796281
0.00432939155597
0.00429801837331
0.00426848855973
0.00423743611999
0.00420673662289
0.00417569523228
0.00414668828817
0.00411703567113
0.00408597252048
0.00405612121908
0.00402672064802
0.00399812777215
0.00396891391628
0.00394045036923
0.00391098753834
0.00388315640087
0.00385487990662
0.00382637058178
0.00379768707851
0.00377172119623
0.00374261555089
0.00371743766989
0.00369086423843
0.00366331519816
0.00363844345219
0.00361096771806
0.00358385415615
0.00355933337311
0.00353317793712
0.00350803688759
0.00348318416077
0.00345857627136
0.00343254653976
0.00340971759084
0.00338592618124
0.00336186331268
0.0033374093683
0.0033139119474
0.00329236409364
0.00326792168735
0.00324538486311
0.00322235792886
0.00320057778445
0.00317947032551
0.00315609609722
0.00313442051184
0.00311260893226
0.00309153434498
0.00307187185968
0.00304978651163
0.00303043523163
0.00301014919677
0.00298949062848
0.00296973703531
0.00294961518483
0.00292905151662
0.00291015322357
0.00289168299827
0.00287167907163
0.00285270454921
0.00283520787239
0.00281590424961
0.00279635508647
0.00277835691815
0.00275942037085
0.00274167724652
0.00272333766374
0.0027061107027
0.00268866397831
0.00267067252994
0.00265099852946
0.0026362482881
0.00261889738444
0.00260214341081
0.0025857431011
0.00256857663857
0.00255173325291
0.00253446622779
0.00251926742357
0.00250208365652
0.0024847620984
0.00247090759643
0.00245421443696
0.00243780734704
0.00242163130338
0.0024078473474
0.0023916147012
0.00237695241105
0.0023633113817
0.00234658094514
0.00233244454954
0.00231850084329
0.00230375281714
0.00228968668938
0.00227444396022
0.00226089747256
0.00224595014723
0.00223141753275
0.00221670006671
0.00220467847946
0.00219042839206
0.00217531553622
0.00216230301041
0.00215085564706
0.00213722667385
0.00212319361346
0.00211011352075
0.00209690772645
0.00208413473786
0.00207069813052
0.00205945871102
0.00204648913349
0.00203393297962
0.00202102762085
0.00200973374283
0.00199722345391
0.0019853849989
0.0019716643924
0.00196009402633
0.00194849962037
0.0019376668928
0.00192415073933
0.00191330470365
0.0019003650009
0.00189026974477
0.00187875852182
0.00186574952985
0.00185581719176
0.0018432658831
0.00183238607651
0.00182193429187
0.00181053257604
0.00179972323813
0.00178856992796
0.00177812036645
0.00176679512265
0.00175624043423
0.0017457684787
0.00173555649657
0.00172536319731
0.00171436581761
0.00170362617021
0.00169479171958
0.00168362840564
0.00167271750943
0.00166392989665
0.00165351203992
0.00164218465815
0.00163250344439
0.00162161467442
0.00161152481187
0.00160217317675
0.00159246671551
0.00158289729956
0.00157307120933
0.00156514266316
0.00155364363705
0.00154571293957
0.00153440960152
0.0015268429076
0.00151732173144
0.00150735725171
0.00149671238963
0.00148968998133
0.00148024562049
0.00147144975816
0.00146441666586
0.00145462349669
0.00144562708463
0.00143826786806
0.00142760466158
0.00141937598349
0.00141196283792
0.00140322927001
0.00139364625684
0.0013883692309
0.00137776385593
0.00136955870273
0.00136183664867
0.00135249051067
0.00134598825984
0.00133754321762
0.00132971921821
0.00132277066783
0.00131255748758
0.00130384496411
0.00129737846862
0.00129126010745
0.0012815144399
0.00127283762274
0.00126739618023
0.00125961533842
0.00125288954275
0.00124565314974
0.0012369356421
0.00122888780806
0.0012207112675
0.00121456913573
0.00120738025218
0.00119959506699
0.00119432978217
0.00118506208566
0.00117829572487
0.00117174054905
0.00116373948763
0.00115914283999
0.0011510377033
0.00114340736084
0.00113602837972
0.00113007520901
0.00112369518865
0.00111688151098
0.00111007523505
0.00110450031634
0.00109560318507
0.00109011464006
0.00108326521401
0.00107579385509
0.00107051606897
0.00106360439417
0.00105710522278
0.00105063103789
0.00104484185236
0.00103981554882
0.00103132735827
0.00102660741712
0.00102013403379
0.00101361869368
0.00100700857864
0.00100295017693
0.000995566570025
0.00099102357447
0.000983556504966
0.000978846453013
0.000972850397204
0.000966080835495
0.000961303873558
0.000955618230922
0.000949591937433
0.000944681066525
0.00093804845067
0.000931998515141
0.000926722786765
0.000920584259818
0.000914738771602
0.000911005885827
0.000905802069269
0.000899541233654
0.000892996225431
0.000889565238372
0.00088467564849
0.000876247490781
0.000871841118154
0.000866563370052
0.000863079380004
0.000856802091022
0.000851999730286
0.000847469328023
0.00084167482403
0.000836525177159
0.000834468521216
0.000826819081403
0.000822764370565
0.000817410638449
0.000811873403787
0.000807854333618
0.000803504179376
0.000799239929967
0.000794641301607
0.000789402921387
0.000784083223015
0.000779960868787
0.000775924211637
0.000769820277619
0.000765033689891
0.00076116390507
0.000757609930764
0.00075117872451
0.000747840509543
0.000744786164916
0.000737966080817
0.000734071649296
0.000730524690661
0.000725588453025
0.000721445126575
0.000715888950265
0.00071281574383
0.000707964043742
0.000704471499981
0.00070235002892
0.000696024749366
0.000691661339228
0.000687711517651
0.00068240778945
0.00067862933513
0.000676011311148
0.000671445975285
0.000666805735465
0.000660799159137
0.000658985570943
0.000654979117331
0.000650539682161
0.000647853336811
0.00064339087394
0.00063981929762
0.00063499383595
0.000631516095406
0.000629060763635
0.000623371048586
0.000619771798293
0.000615828744537
0.000612065657767
0.000610178675964
0.000605995126285
0.00060324573785
0.000599460378608
0.000595764138058
0.000592779229471
0.000587855973217
0.000584534595896
0.000581004230894
0.000577780278854
0.000574848822248
0.000569228827215
0.000567008737638
0.00056288640816
0.000559706980242
0.000556474399696
0.00055333569468
0.000548925233678
0.000548361177768
0.000541939011166
0.00054153131119
0.000535644973444
0.000534037445995
0.000530141423711
0.000526460663213
0.000525235603388
0.000521154166742
0.000519690704402
0.000515346058319
0.000512402732624
0.000508499147449
0.000505794860516
0.000503552156446
0.000499317241537
0.000496418485743
0.000494687783426
0.00049040665493
0.000487627544861
0.000484257359415
0.000482048712648
0.000478008533868
0.000475346505569
0.000472584182806
0.000470781267352
0.000467428478514
0.000465720366739
0.000461811644766
0.000459619155758
0.000457081355502
0.000453292563462
0.000451288528897
0.000448302466167
0.000445953980967
0.000442865027147
0.000439554776039
0.000437040719167
0.000435092468803
0.000431065238055
0.000430981623339
0.000427711632585
0.000423605141473
0.000422148898111
0.000417516547784
0.000414429885893
0.000415301348771
0.000412310613051
0.000408341597956
0.000407005643028
0.000403394070068
0.000402390862703
0.000399590235873
0.000398469632083
0.000394156955276
0.000391358139153
0.000388725902784
0.000387729543351
0.000382335617792
0.000382602585996
0.000380762808684
0.000377434097265
0.000374214779433
0.000374358513686
0.000371457320746
0.00036837229587
0.000366569345476
0.000362841504825
0.000363417801861
0.000360099184405
0.000357293154467
0.000355289905488
0.000351886371776
0.00035024223509
0.000348288187827
0.000347846432501
0.000345264473778
0.000343818614388
0.00034108896138
0.000339084202427
0.000337136051202
0.000335402442989
0.00033337633266
0.000331009069156
0.000327648796297
0.000326301097434
0.000324026936612
0.000322825205731
0.000319779148777
0.00031814022139
0.000317008583534
0.000313532944391
0.000312805005314
0.000311928034493
0.000308937152694
0.000307831853132
0.000307536080247
0.000302758707791
0.00030278141817
0.000300013288315
0.000298225607024
0.000296381985795
0.000293982361414
0.000291920819631
0.000292048488625
0.000289397162638
0.000286958837549
0.000286755180604
0.000283332000313
0.00028260256879
0.000282225035732
0.000279733408299
0.000277433239676
0.000275335067475
0.000275064607907
0.000272619777326
0.000271018490023
0.00026969753457
0.000268966697732
0.000266330844401
0.000264821470129
0.000263109975208
0.000262524160735
0.000258966978807
0.000257150011455
0.000255935172821
0.000254789447902
0.000254107827772
0.000252933800647
0.000250763921406
0.000248629547915
0.000248829458475
0.000246290951367
0.000244140472846
0.000242258274484
0.000240707108844
0.000240506889656
0.000238159617143
0.000237061789999
0.00023520508047
0.000234607909838
0.000233523334964
0.000233406649399
0.00023035856418
0.000229375455586
0.000228015281419
0.000225648380116
0.000226118359084
0.00022362440371
0.000224014875508
0.000220684184355
0.000219979829548
0.000217548312697
0.00021690201739
0.000215192489765
0.000214617129496
0.000212741443649
0.000212734515169
0.000210644411961
0.000208502206554
0.000207959148789
0.000207621201462
0.000205294719403
0.000204629733306
0.000202886318294
0.000201986256565
0.000200660616224
0.000198747399647
0.000197344912892
0.000197968375607
0.000195530072583
0.000194900990678
0.000194370543523
0.000192552179576
0.000190652107053
0.000191092410517
0.000188412795013
0.000188007649686
0.00018536204092
0.000185558886428
0.000184374125421
0.000183528260538
0.000181795361045
0.000181199574592
0.000178874453737
0.000178483114003
0.000177980491891
0.000177049881302
0.000175603662841
0.000175326900606
0.000174051408352
0.00017172943598
0.000172929400479
0.000170868941375
0.000170461362494
0.000168826803674
0.000167614918437
0.000167497122858
0.000164447085909
0.000166529988544
0.000163557913687
0.000162122554476
0.000161326843477
0.000160473287132
0.000160553703339
0.000158062090761
0.000158309196512
0.000158338103451
0.000155768793012
0.000153555985811
0.000153964309333
0.000152721033335
0.00015174627311
0.000150391431573
0.000149589880856
0.00014938713448
0.000148638171049
0.000146808896241
0.000146580932926
0.000146382297038
0.000145465740246
0.000142687360006
0.00014267722883
0.000142766818101
0.000143001360631
0.00014199486017
0.000140780459504
0.000139898730774
0.000138283658027
0.000137048493668
0.000137758034252
0.000136616361359
0.000134532673065
0.000134094922454
0.000133905239304
0.000132225233733
0.000131654021353
0.000130063863615
0.000131025505824
0.00013122181146
0.000128633193121
0.000127914503596
0.000125508040707
0.000126433673352
0.000125140007369
0.00012430718769
0.000123711290989
0.000122103469066
0.00012105050763
0.000122218489851
0.000119494773748
0.000119987905996
0.000117770642782
0.000117705823987
0.000116855786795
0.000115500814757
0.000115735368582
0.000116236544009
0.000113613145151
0.000114612458014
0.000112838706523
0.000111860529639
0.000111887075034
0.000111230249208
0.000109809441122
0.000110534230343
0.000108274543142
0.000107497659029
0.000106544066322
0.000106097396881
0.000106247825808
0.000104974266534
0.000104243716673
0.000104072815231
0.000103395304124
0.00010401022178
0.000101040613581
0.000101123315537
0.000101299142402
0.000100784341675
0.00010142904065
9.84932403683e-05
9.85515693332e-05
9.72090111819e-05
9.78625126903e-05
9.7038876998e-05
9.68213450318e-05
9.59337347483e-05
9.52188577275e-05
9.31096841806e-05
9.51918907886e-05
9.53170128632e-05
9.33624589755e-05
9.32119963811e-05
9.18965366621e-05
9.22292983418e-05
9.30318780005e-05
9.06930425638e-05
9.08451550835e-05
8.92840797765e-05
8.93597773982e-05
8.86865946629e-05
8.74848770716e-05
8.7944028175e-05
8.74831288859e-05
8.58659915379e-05
8.75496467829e-05
8.60636028874e-05
8.68641402478e-05
8.45444905003e-05
8.48502249463e-05
8.46845397267e-05
8.38086071116e-05
8.26375487996e-05
8.11507490602e-05
8.04794630225e-05
8.15265789259e-05
8.1421958664e-05
7.94090470787e-05
7.97664734728e-05
7.96556119909e-05
7.89081260017e-05
7.87043624063e-05
7.66628859737e-05
7.72366677128e-05
7.6910870008e-05
7.62390074562e-05
7.56932292049e-05
7.6174779103e-05
7.53927758642e-05
7.3872882559e-05
7.35792501676e-05
7.44370906467e-05
7.32374189926e-05
7.4154373827e-05
7.37084054758e-05
7.27770531615e-05
7.16106703093e-05
7.13541294531e-05
7.02535217606e-05
7.08649002885e-05
7.03960526227e-05
7.04681127668e-05
6.91114881833e-05
6.94688530046e-05
6.85517702301e-05
6.79449017395e-05
6.84994864135e-05
6.77491771555e-05
6.74846174914e-05
6.63327193971e-05
6.68358293718e-05
6.60526202515e-05
6.63467945861e-05
6.56778325281e-05
6.42430481773e-05
6.5408344009e-05
6.44906293806e-05
6.26021510729e-05
6.24668580022e-05
6.19549233637e-05
6.21267852508e-05
6.12330246098e-05
6.234461711e-05
6.10798989482e-05
6.06565466395e-05
6.05860823727e-05
5.9979488068e-05
6.10961859772e-05
5.97547877112e-05
5.96276574594e-05
5.94152123311e-05
5.76307664372e-05
5.7390732969e-05
5.67662771724e-05
5.71925988025e-05
5.64575636184e-05
5.7978922084e-05
5.58060552769e-05
5.56174523107e-05
5.39488919886e-05
5.4737330593e-05
5.47951995642e-05
5.34409716776e-05
5.39636257899e-05
5.34332242696e-05
5.23565916014e-05
5.37967410874e-05
5.1308402274e-05
5.33226051822e-05
5.15584526629e-05
5.19348869646e-05
5.23092916487e-05
5.18282191493e-05
5.22022855092e-05
5.17330616777e-05
4.95789272437e-05
5.04552318445e-05
4.86536877741e-05
5.12850697557e-05
4.90628725129e-05
5.06175600728e-05
4.75889275181e-05
4.88580763506e-05
4.99927870482e-05
4.84899440679e-05
4.71633188597e-05
4.76271767169e-05
4.67063858983e-05
4.78641721059e-05
4.64032179452e-05
4.64436345117e-05
4.64053526525e-05
4.57625079273e-05
4.43570847516e-05
4.53134224079e-05
4.46966905872e-05
4.45435753347e-05
4.50025927011e-05
4.54842463548e-05
4.34524730652e-05
4.50649473045e-05
4.33210760232e-05
4.28671027142e-05
4.20447024807e-05
4.34257432496e-05
4.1728208745e-05
4.14939597004e-05
4.16348921662e-05
4.14665900498e-05
4.03205582354e-05
4.15413118616e-05
4.05872361496e-05
4.06676894487e-05
3.93631494091e-05
3.93586382061e-05
3.94205907747e-05
3.84684405795e-05
3.8924103269e-05
3.93147269204e-05
3.75088189789e-05
3.84671305808e-05
3.79712238194e-05
3.70273996271e-05
3.87600357376e-05
3.62046599612e-05
3.53484942518e-05
3.57523386491e-05
3.5884917218e-05
3.6582831995e-05
3.48803937883e-05
3.47121488392e-05
3.63359972218e-05
3.57055966441e-05
3.59679241228e-05
3.45235138433e-05
3.31612080956e-05
3.47118137481e-05
3.38888863895e-05
3.55272505484e-05
3.40025079201e-05
3.38406914353e-05
3.32477029256e-05
3.28682332809e-05
3.37325156233e-05
3.15959757783e-05
3.21262365375e-05
3.2108874246e-05
3.30673091334e-05
3.27047789844e-05
3.20621652394e-05
3.28564719865e-05
3.15637441982e-05
3.1947413632e-05
2.99180216288e-05
3.17023635671e-05
3.25086980106e-05
3.15084008397e-05
3.09285443219e-05
3.05658920069e-05
3.02126776241e-05
3.0518327732e-05
2.95182762306e-05
3.13335565169e-05
3.05346782791e-05
2.96576188721e-05
2.92983375462e-05
3.00706370622e-05
2.87222702719e-05
2.76303331352e-05
2.85684284316e-05
2.86636093816e-05
2.92831852084e-05
2.9071799451e-05
2.91299845904e-05
2.753475401e-05
2.68170263606e-05
2.80355199443e-05
2.78123861552e-05
2.72624129939e-05
2.68238437508e-05
2.77968212557e-05
2.70608158269e-05
2.59607111701e-05
2.74645215488e-05
2.65511078053e-05
2.5788134313e-05
2.64433138636e-05
2.52810762414e-05
2.59828723595e-05
2.59516113328e-05
2.57247553786e-05
2.44747622369e-05
2.52137516833e-05
2.55440262927e-05
2.48546550247e-05
2.37012778225e-05
2.42319997114e-05
2.44634615932e-05
2.58430806126e-05
2.58341280797e-05
2.31646682004e-05
2.36714665029e-05
2.21288699704e-05
2.39923592596e-05
2.31528336537e-05
2.20598972235e-05
2.38138886067e-05
2.2776753848e-05
2.26598024153e-05
2.22222732799e-05
2.26230394679e-05
2.16228039835e-05
2.24078385255e-05
2.21291090123e-05
2.31944674581e-05
2.08389350443e-05
2.250635349e-05
2.05551907321e-05
2.15264706402e-05
2.21632556038e-05
2.06962504165e-05
2.03724264998e-05
1.86819724768e-05
2.10886470002e-05
1.93436058889e-05
2.041931893e-05
2.03829211533e-05
1.87387122884e-05
1.9647987185e-05
2.00095340833e-05
1.91491894939e-05
2.00162839095e-05
1.94504338008e-05
1.89217715238e-05
1.86320822843e-05
1.91268407891e-05
2.11968656214e-05
1.89296056889e-05
1.89798175797e-05
1.90518147425e-05
1.82515498906e-05
1.99745305545e-05
1.80421205637e-05
1.71841587161e-05
2.01348237422e-05
1.66553161572e-05
1.73078168047e-05
1.77501715221e-05
1.59170117997e-05
1.69336038002e-05
1.80289606321e-05
1.76917411779e-05
1.68718809584e-05
1.71616443634e-05
1.59304434522e-05
1.69562664457e-05
1.67758430413e-05
1.51753584665e-05
1.66232041446e-05
1.69857228877e-05
1.50328973754e-05
