5.95118592185e-09
5.59292772347e-09
5.87824634565e-09
8.11976579934e-09
1.53572636436e-08
3.09811072133e-08
6.10905777146e-08
1.11400960795e-07
1.93745955195e-07
3.12984612139e-07
4.84208662912e-07
7.1751634753e-07
1.0171728183e-06
1.3954551914e-06
1.85309197892e-06
2.3947809912e-06
3.02462143249e-06
3.73850290017e-06
4.52281079644e-06
5.37903524007e-06
6.29586210542e-06
7.26779499831e-06
8.25544266438e-06
9.28931928188e-06
1.03340163563e-05
1.13953509016e-05
1.24468754094e-05
1.34824697111e-05
1.44922914394e-05
1.54864890992e-05
1.64357670046e-05
1.73494426786e-05
1.82203504328e-05
1.90589668413e-05
1.98384919761e-05
2.05716404355e-05
2.12597078337e-05
2.19094666081e-05
2.24909814603e-05
2.30555626297e-05
2.35365190284e-05
2.39972825953e-05
2.44181356502e-05
2.47913158356e-05
2.50986493871e-05
2.53803743748e-05
2.5633717327e-05
2.58457928337e-05
2.60111013573e-05
2.61381806316e-05
2.6263030897e-05
2.63166961138e-05
2.63666927054e-05
2.63841509372e-05
2.63750357319e-05
2.63305873097e-05
2.62750266572e-05
2.61953684657e-05
2.60953940899e-05
2.5969876488e-05
2.58233440695e-05
2.56680764021e-05
2.55026674236e-05
2.53166684565e-05
2.51125643499e-05
2.49001445181e-05
2.4693220725e-05
2.44713700397e-05
2.42085885853e-05
2.39823426073e-05
2.37230786571e-05
2.34690889909e-05
2.32024989027e-05
2.2947270367e-05
2.26700664438e-05
2.23903122436e-05
2.21179975567e-05
2.18530837919e-05
2.15844166853e-05
2.12923688831e-05
2.10144390294e-05
2.07394336129e-05
2.04511784948e-05
2.01863655771e-05
1.99014761904e-05
1.96262247524e-05
1.93525918787e-05
1.90877514861e-05
1.88180706664e-05
1.85473520181e-05
1.82928900624e-05
1.80298538997e-05
1.77684961828e-05
1.75078990609e-05
1.72666791289e-05
1.70210545853e-05
1.67660781271e-05
1.65224221341e-05
1.62843338527e-05
1.6054553416e-05
1.58222229682e-05
1.55957685076e-05
1.53636662025e-05
1.51464567353e-05
1.49277918354e-05
1.47084150581e-05
1.44900395227e-05
1.42926213072e-05
1.40738758586e-05
1.38857651923e-05
1.36887788192e-05
1.34861817104e-05
1.33047373561e-05
1.31044190413e-05
1.29089390461e-05
1.27338810429e-05
1.25492329934e-05
1.23708850502e-05
1.21972698302e-05
1.2026179338e-05
1.18467505657e-05
1.16906536062e-05
1.15289315508e-05
1.13665049197e-05
1.12024107381e-05
1.10459389946e-05
1.09030706347e-05
1.07422195359e-05
1.05961779116e-05
1.0446297765e-05
1.03064633315e-05
1.0171583178e-05
1.0023123301e-05
9.88645272354e-06
9.7496949695e-06
9.6186865583e-06
9.49687406725e-06
9.36179041511e-06
9.24394389441e-06
9.12123542853e-06
8.99719904874e-06
8.87861664869e-06
8.76020204256e-06
8.63851639092e-06
8.52865180884e-06
8.4210123962e-06
8.30450929168e-06
8.19619668133e-06
8.096462914e-06
7.98678987687e-06
7.87704348041e-06
7.77659224254e-06
7.67145960938e-06
7.57301011772e-06
7.47288868885e-06
7.37913554613e-06
7.28574591791e-06
7.18808559985e-06
7.08373831688e-06
7.00493248414e-06
6.91355849365e-06
6.82622037405e-06
6.74106273528e-06
6.65247897109e-06
6.56634369632e-06
6.47858737704e-06
6.40074772486e-06
6.31449676506e-06
6.22805269672e-06
6.15889713547e-06
6.0763053951e-06
5.99594289175e-06
5.9165288986e-06
5.84997421897e-06
5.7719726692e-06
5.70160145406e-06
5.63745624505e-06
5.55770426288e-06
5.49201394574e-06
5.42621290591e-06
5.35780052247e-06
5.29337349348e-06
5.22305573543e-06
5.16229362464e-06
5.09445230215e-06
5.02893197084e-06
4.96361795515e-06
4.91058841642e-06
4.84760389185e-06
4.78094821342e-06
4.72436428789e-06
4.67481239826e-06
4.61720208693e-06
4.5557764743e-06
4.50103270615e-06
4.44501450454e-06
4.39144151521e-06
4.33500761854e-06
4.28935562343e-06
4.23497111595e-06
4.18389313835e-06
4.13140437107e-06
4.08523608466e-06
4.03513284423e-06
3.98791150571e-06
3.93390712414e-06
3.8873787198e-06
3.8419035704e-06
3.79932208957e-06
3.74693336131e-06
3.7056045265e-06
3.65568690029e-06
3.61715130079e-06
3.57343107965e-06
3.52298495658e-06
3.48617362688e-06
3.44029462834e-06
3.40033666592e-06
3.36190935187e-06
3.32015369052e-06
3.28084404696e-06
3.24005924733e-06
3.2031764182e-06
3.16291633377e-06
3.12524167572e-06
3.08838455079e-06
3.05295752009e-06
3.01762951548e-06
2.97922970333e-06
2.94243207604e-06
2.91244310564e-06
2.87458707593e-06
2.83722562784e-06
2.808170224e-06
2.77347265567e-06
2.73610770241e-06
2.7039937272e-06
2.66886355454e-06
2.63605732699e-06
2.60520749883e-06
2.57371199143e-06
2.54406224037e-06
2.51234744715e-06
2.48736620665e-06
2.45170415301e-06
2.42704668895e-06
2.39168704486e-06
2.36826537668e-06
2.33950112388e-06
2.30887886427e-06
2.27663740364e-06
2.25595426327e-06
2.22752165088e-06
2.2018549733e-06
2.18070639465e-06
2.15209118738e-06
2.12555424908e-06
2.10483915552e-06
2.07402433698e-06
2.05065483948e-06
2.02931061526e-06
2.00424237056e-06
1.97707300001e-06
1.96232975897e-06
1.93322446568e-06
1.91029178071e-06
1.8890509668e-06
1.86381947896e-06
1.84594971009e-06
1.82330382597e-06
1.80252155718e-06
1.78391310575e-06
1.75731878568e-06
1.73398219169e-06
1.71723883943e-06
1.70128173736e-06
1.6761370247e-06
1.65325513469e-06
1.63993654034e-06
1.62019474816e-06
1.60268785603e-06
1.58501923066e-06
1.56276975277e-06
1.54297890077e-06
1.52281296497e-06
1.50800056151e-06
1.49013441222e-06
1.47132296659e-06
1.45834038818e-06
1.43639678768e-06
1.42019930011e-06
1.40437637131e-06
1.38548219362e-06
1.3749168358e-06
1.35514513703e-06
1.33799317654e-06
1.321184636e-06
1.30712958842e-06
1.29266946252e-06
1.27726823504e-06
1.26198533051e-06
1.24966578724e-06
1.22969836131e-06
1.21777672714e-06
1.20284158331e-06
1.18663446237e-06
1.17500336514e-06
1.16019325381e-06
1.14623041876e-06
1.1323933882e-06
1.11997880448e-06
1.10952612191e-06
1.09150212706e-06
1.08177366434e-06
1.06822488249e-06
1.05472815757e-06
1.0414333118e-06
1.03297290078e-06
1.01781031017e-06
1.00925374773e-06
9.94335688391e-07
9.84787275073e-07
9.73308763461e-07
9.59658446831e-07
9.50039996455e-07
9.39049618858e-07
9.27722992712e-07
9.18176227137e-07
9.05704472619e-07
8.94290201343e-07
8.84148287754e-07
8.73069088402e-07
8.61905771493e-07
8.54547267529e-07
8.45202894826e-07
8.33629184004e-07
8.21995829524e-07
8.16165748759e-07
8.07160434135e-07
7.92296932358e-07
7.84857253312e-07
7.75212293379e-07
7.69030197612e-07
7.58217421573e-07
7.50085075471e-07
7.42225390156e-07
7.32542582103e-07
7.23918648931e-07
7.20009786142e-07
7.07152973481e-07
7.0045070236e-07
6.91802572041e-07
6.82884412457e-07
6.75972009628e-07
6.68990236361e-07
6.6207716401e-07
6.54930938e-07
6.46334730914e-07
6.37551117457e-07
6.3138871862e-07
6.25116770367e-07
6.15223300715e-07
6.07671078313e-07
6.01834284044e-07
5.96262362219e-07
5.8649990902e-07
5.81400442635e-07
5.76328062296e-07
5.66227766424e-07
5.60303536168e-07
5.5547143876e-07
5.48157816157e-07
5.42243744565e-07
5.33802916983e-07
5.29565079928e-07
5.22666838154e-07
5.17432181265e-07
5.14515082312e-07
5.0564550136e-07
4.99449738191e-07
4.93612540829e-07
4.86234960553e-07
4.81169729055e-07
4.77677685006e-07
4.71770343461e-07
4.65086218591e-07
4.57207262624e-07
4.54468843796e-07
4.49157360851e-07
4.43589364527e-07
4.39834762103e-07
4.34126405917e-07
4.2944035529e-07
4.23441964848e-07
4.18564143329e-07
4.15766493333e-07
4.08377214638e-07
4.04067935161e-07
3.99134224426e-07
3.9425525154e-07
3.92078953788e-07
3.87048820284e-07
3.83552891353e-07
3.78929685659e-07
3.743534329e-07
3.70735761952e-07
3.64774939118e-07
3.60827414805e-07
3.56923816092e-07
3.52898740728e-07
3.49550244339e-07
3.42971163205e-07
3.4065200988e-07
3.35763157008e-07
3.31766498293e-07
3.28648499138e-07
3.25095048416e-07
3.19873053038e-07
3.18972872993e-07
3.11851788207e-07
3.11245398232e-07
3.05288580785e-07
3.03285310452e-07
2.98958858835e-07
2.95158588823e-07
2.93612894161e-07
2.8934472334e-07
2.87611461246e-07
2.82845886194e-07
2.80193761669e-07
2.75999581402e-07
2.73128510611e-07
2.70602284799e-07
2.66506441007e-07
2.63435384778e-07
2.61810596452e-07
2.57375517455e-07
2.55021043396e-07
2.51501053323e-07
2.49026051703e-07
2.44822059993e-07
2.42419568286e-07
2.39603549322e-07
2.37746743726e-07
2.34637623351e-07
2.33128710804e-07
2.2952902794e-07
2.27291876252e-07
2.2474487209e-07
2.21222818124e-07
2.19083135366e-07
2.16783106131e-07
2.14168305486e-07
2.11811343595e-07
2.08602565297e-07
2.06271301923e-07
2.04853962105e-07
2.01333266807e-07
2.01000686107e-07
1.9782147777e-07
1.94667018928e-07
1.93433433412e-07
1.8954066134e-07
1.86969991424e-07
1.87202434755e-07
1.84822462927e-07
1.81391497097e-07
1.80398477823e-07
1.77817963355e-07
1.76490217299e-07
1.74427643437e-07
1.74050025206e-07
1.69683425588e-07
1.6787667704e-07
1.65733350545e-07
1.64544566891e-07
1.60565090524e-07
1.61191012408e-07
1.59408132741e-07
1.56723361307e-07
1.54218445884e-07
1.54283545458e-07
1.52222200744e-07
1.4958012931e-07
1.4848742018e-07
1.45655868478e-07
1.46143619218e-07
1.43669925122e-07
1.41501227072e-07
1.40348677078e-07
1.37436916689e-07
1.36578184284e-07
1.34973295615e-07
1.34948118393e-07
1.32943955332e-07
1.31918152649e-07
1.30062263019e-07
1.2847675697e-07
1.271438729e-07
1.25660987497e-07
1.24295838685e-07
1.22742006804e-07
1.20869444647e-07
1.19583009546e-07
1.18165962581e-07
1.17492762667e-07
1.15527252697e-07
1.14298357623e-07
1.1345452037e-07
1.1147457299e-07
1.11135687787e-07
1.10350070516e-07
1.08508811525e-07
1.07793438229e-07
1.07232355035e-07
1.04568974001e-07
1.04526827463e-07
1.0263801e-07
1.01886455714e-07
1.00583090296e-07
9.89004246258e-08
9.78516775796e-08
9.80268517918e-08
9.64995335787e-08
9.48162892807e-08
9.46108397716e-08
9.27632244407e-08
9.25683811619e-08
9.18322338633e-08
9.05868898949e-08
8.91067909404e-08
8.80072187849e-08
8.80059357871e-08
8.63929428885e-08
8.60134293311e-08
8.46935571918e-08
8.47530130027e-08
8.30286058521e-08
8.21574956466e-08
8.12497403061e-08
8.07833780643e-08
7.88090443756e-08
7.76944454434e-08
7.74186464211e-08
7.68596802138e-08
7.6402328281e-08
7.56512242854e-08
7.45740037112e-08
7.31724815539e-08
7.33791385256e-08
7.21621444497e-08
7.09098478228e-08
7.01657005959e-08
6.93190489848e-08
6.90049043442e-08
6.78188167559e-08
6.75716457306e-08
6.69343460392e-08
6.60637939115e-08
6.58095807692e-08
6.55667027584e-08
6.42510693832e-08
6.37010336363e-08
6.31564688692e-08
6.20089500885e-08
6.19869125166e-08
6.08999692215e-08
6.12383755685e-08
5.95510858995e-08
5.90788213164e-08
5.81923047318e-08
5.79361205954e-08
5.70702569606e-08
5.67752206244e-08
5.591574188e-08
5.59881258399e-08
5.48158499502e-08
5.41489111821e-08
5.34906985384e-08
5.36705581677e-08
5.25300878324e-08
5.23302185133e-08
5.14132115042e-08
5.11647077415e-08
5.07524702359e-08
4.98440479441e-08
4.92887427116e-08
4.96066203804e-08
4.83876314862e-08
4.80858644527e-08
4.78740101685e-08
4.73126538245e-08
4.65749257772e-08
4.64560306253e-08
4.52931464807e-08
4.51747939396e-08
4.44328230259e-08
4.43029282596e-08
4.41028970861e-08
4.35924658447e-08
4.29813171948e-08
4.29927848193e-08
4.18767727477e-08
4.17735809875e-08
4.14104749199e-08
4.10200300274e-08
4.07040562157e-08
4.0453095595e-08
3.98376997119e-08
3.92218308349e-08
3.95624627381e-08
3.87916434805e-08
3.86728943759e-08
3.79477187947e-08
3.75792133151e-08
3.75733649358e-08
3.6406108056e-08
3.71691621741e-08
3.59473795165e-08
3.57372876543e-08
3.54656090203e-08
3.50970424752e-08
3.50665348092e-08
3.4344525003e-08
3.43696282218e-08
3.43817854525e-08
3.34457477519e-08
3.29963448416e-08
3.28700990983e-08
3.2514144454e-08
3.2396060554e-08
3.17643574777e-08
3.17501835633e-08
3.15454366735e-08
3.12255999257e-08
3.09526590635e-08
3.05378244752e-08
3.07500293554e-08
3.03318892723e-08
2.94551154643e-08
2.95090688433e-08
2.9513140961e-08
2.98027425428e-08
2.92296000796e-08
2.89937918688e-08
2.83847810808e-08
2.80456992419e-08
2.76416132516e-08
2.79570651418e-08
2.76468895889e-08
2.69508584423e-08
2.69295942001e-08
2.6855243347e-08
2.62288761501e-08
2.61982132739e-08
2.55190918414e-08
2.57883355266e-08
2.58446861221e-08
2.53357521242e-08
2.48993609614e-08
2.42871827721e-08
2.45286567095e-08
2.43421005848e-08
2.41070752088e-08
2.37333997894e-08
2.35415478594e-08
2.31766176347e-08
2.34060964684e-08
2.27264781972e-08
2.27720801063e-08
2.20547593461e-08
2.23104325247e-08
2.21729242596e-08
2.17064592166e-08
2.18496060063e-08
2.19325150162e-08
2.11332276372e-08
2.13178689949e-08
2.10560479563e-08
2.07600005485e-08
2.08219937859e-08
2.07771646551e-08
2.03965961825e-08
2.04349792473e-08
1.99315913306e-08
1.97440241423e-08
1.95486733754e-08
1.93556062853e-08
1.93151389284e-08
1.90077437317e-08
1.90572035632e-08
1.90238300432e-08
1.89103593287e-08
1.88469592554e-08
1.82329722898e-08
1.81494856804e-08
1.83075255175e-08
1.82225801867e-08
1.82806241812e-08
1.75977566572e-08
1.76868557413e-08
1.73535258308e-08
1.77202675932e-08
1.73826990924e-08
1.72633790223e-08
1.7102216473e-08
1.71963768553e-08
1.63802102666e-08
1.69537950069e-08
1.68934156357e-08
1.6751678037e-08
1.65740135865e-08
1.63109737197e-08
1.62547818591e-08
1.65099195533e-08
1.60931319139e-08
1.60020897087e-08
1.57401846816e-08
1.56823835613e-08
1.57560707471e-08
1.53389108045e-08
1.54629179426e-08
1.5431602646e-08
1.51484264059e-08
1.52302516976e-08
1.50418031685e-08
1.52475583076e-08
1.49115384183e-08
1.5019656817e-08
1.48202855696e-08
1.48661215501e-08
1.43768246997e-08
1.42834522544e-08
1.42618214942e-08
1.44293479459e-08
1.43189789475e-08
1.39770876269e-08
1.39815833135e-08
1.39030217828e-08
1.37539582901e-08
1.36868961869e-08
1.31858500026e-08
1.33052035005e-08
1.33861362941e-08
1.31548055519e-08
1.30865574892e-08
1.34282856341e-08
1.30504539588e-08
1.28734396115e-08
1.29448284134e-08
1.28931170564e-08
1.28106088174e-08
1.307195206e-08
1.2879791075e-08
1.26752578285e-08
1.24638728708e-08
1.24621475575e-08
1.2453767135e-08
1.23545930511e-08
1.21973817923e-08
1.21972929389e-08
1.20584797417e-08
1.2215569084e-08
1.19582183495e-08
1.18859056265e-08
1.18754615322e-08
1.16764763006e-08
1.17290998739e-08
1.1394483525e-08
1.16648613042e-08
1.15572776349e-08
1.16547867608e-08
1.15949188251e-08
1.15320149014e-08
1.1446993777e-08
1.13480640635e-08
1.12637160302e-08
1.12096323991e-08
1.10213704818e-08
1.08885692348e-08
1.08425879832e-08
1.09884175428e-08
1.08155768397e-08
1.07565441473e-08
1.07514801015e-08
1.07212402307e-08
1.07638835729e-08
1.05387332106e-08
1.05726241239e-08
1.06349076091e-08
1.04810701253e-08
1.03603809988e-08
9.98765059626e-09
1.02839920219e-08
1.0301979186e-08
1.04042807936e-08
1.01500939323e-08
1.01213567722e-08
9.83764803705e-09
1.01665691867e-08
1.00035550304e-08
9.80989860043e-09
1.00958369179e-08
9.83475533302e-09
9.60945853807e-09
9.8228207884e-09
9.37352241467e-09
9.65116259059e-09
9.56190232509e-09
9.71833502988e-09
9.55075946332e-09
9.67132436182e-09
9.51156221919e-09
9.53337210991e-09
9.35300360275e-09
9.53964720387e-09
9.06411425994e-09
9.52609621306e-09
9.10445975547e-09
9.21318678433e-09
9.06245593112e-09
9.138601487e-09
9.2606798054e-09
8.98838866447e-09
8.98283714099e-09
9.14770110796e-09
8.92790235446e-09
9.30849822186e-09
8.8004400525e-09
8.8743640589e-09
9.02079290291e-09
8.76992723473e-09
8.54876822953e-09
8.74711327741e-09
8.91343329108e-09
8.58612048233e-09
8.86664324404e-09
8.83551382332e-09
8.64022448595e-09
8.69857666527e-09
8.62803337651e-09
8.52084226291e-09
8.64604614524e-09
8.4803483447e-09
8.2528264759e-09
8.3245322375e-09
8.45367129441e-09
8.45548231406e-09
8.35691147125e-09
8.37424650674e-09
8.31904477338e-09
8.12827337524e-09
8.20771421315e-09
8.067576219e-09
8.28586254743e-09
8.07693480199e-09
8.0145507151e-09
8.08869104921e-09
8.04345940101e-09
7.92866830108e-09
7.97238522433e-09
7.94561613585e-09
7.9659757185e-09
7.88346973797e-09
7.75772576805e-09
7.7496407396e-09
7.64870072952e-09
7.95976116049e-09
7.77457074653e-09
7.69571114798e-09
7.9350795865e-09
7.82034307801e-09
7.89989638859e-09
7.67178574033e-09
7.52968122123e-09
7.68516480205e-09
7.58328319144e-09
7.74670091362e-09
7.65057935593e-09
7.73536834806e-09
7.29626855033e-09
7.50105466369e-09
7.54980143302e-09
7.41894429252e-09
7.53600473566e-09
7.3271918531e-09
7.53185723906e-09
7.48457362151e-09
7.37674483678e-09
7.56021550519e-09
7.40511743979e-09
7.45492771671e-09
7.31062353598e-09
7.46118106987e-09
7.50102255259e-09
7.27952997841e-09
7.28692426471e-09
7.247094193e-09
7.42698347866e-09
7.42417200741e-09
7.20373112046e-09
7.36795694542e-09
7.3280981042e-09
7.24927410577e-09
7.32752750393e-09
7.26585302985e-09
7.14891882519e-09
7.22489319498e-09
7.06780506346e-09
7.25009336486e-09
7.23243159961e-09
7.22846265596e-09
7.26802939021e-09
7.10343705977e-09
7.13726123471e-09
7.04325933741e-09
7.06758198048e-09
7.16554093681e-09
6.99975078399e-09
7.02696315163e-09
7.0445978159e-09
7.02142219858e-09
6.99094847949e-09
6.9997934784e-09
6.9543815702e-09
6.97502311135e-09
6.88349355553e-09
6.79314552814e-09
7.02008919729e-09
6.93674430573e-09
6.6627368802e-09
6.90821386555e-09
6.79020569877e-09
6.87961992634e-09
6.82500517604e-09
6.83775813417e-09
6.65899640834e-09
6.83647062881e-09
6.79119642173e-09
6.79030337698e-09
6.70057296354e-09
6.64404564045e-09
6.76168472104e-09
6.74889732882e-09
6.58668877022e-09
6.65374294144e-09
6.76646088586e-09
6.6911433903e-09
6.54179978223e-09
6.7870733616e-09
6.7242773102e-09
6.65603817589e-09
6.57135188014e-09
6.63104420969e-09
6.62027574402e-09
6.65937088209e-09
6.48103041039e-09
6.86419673203e-09
6.63864279098e-09
6.62229321861e-09
6.65843099362e-09
6.53367564272e-09
6.51728294323e-09
6.36614092277e-09
6.55734757752e-09
6.48782674745e-09
6.37977559913e-09
6.44543556813e-09
6.35181166498e-09
6.55520096073e-09
6.44258165823e-09
6.59136229571e-09
6.37097980979e-09
6.28273639842e-09
6.36126863477e-09
6.5867106206e-09
6.3160189656e-09
6.5491271362e-09
6.30674212194e-09
6.36407816247e-09
6.46454644803e-09
6.38330318404e-09
6.37952642203e-09
6.51073056928e-09
6.4205611497e-09
6.29808530561e-09
6.28919838696e-09
6.36821366785e-09
6.39889764642e-09
6.48051107178e-09
6.35999716568e-09
6.34938419737e-09
6.34794698352e-09
6.40491432688e-09
6.30189080675e-09
6.2328135475e-09
6.14085864774e-09
6.31653809796e-09
6.21830273297e-09
6.23333810612e-09
