-2.2497710684
-2.14726733304
-1.97229522813
-1.69079119382
-1.05925498289
-0.255105943817
0.982849959495
2.35562380681
4.14439037539
6.03728159212
8.22676255657
10.3682256672
12.7320127685
14.9075557389
17.1196981076
19.0914779153
21.0242673384
22.7718217979
24.347261183
25.6863101008
26.9017514155
27.8877834944
28.7080799091
29.2931895319
29.7781629204
30.0915027261
30.3132522842
30.3827471781
30.2902377722
30.1209431352
29.8466976466
29.504814742
29.083980028
28.5767308206
28.109330964
27.5015926896
26.9511568274
26.3221302642
25.6921490151
25.0278717238
24.3048641116
23.7154709076
23.0252193156
22.3260688935
21.6845819917
21.0624822507
20.355171693
19.7755776179
19.1822700787
18.5911373758
17.9825598652
17.3977026889
16.835602919
16.2868720139
15.7386308202
15.163315543
14.6554134227
14.1251314875
13.63830989
13.1956708244
12.718976446
12.2746687367
11.7780100923
11.3809022922
10.9108609818
10.4909001213
10.0797342002
9.72526884907
9.28667594773
8.93427325929
8.57754561461
8.22503899033
7.84810629598
7.55868782664
7.23280668898
6.8929713049
6.58118937396
6.32177480645
6.01061108405
5.73568568443
5.45270394743
5.18790563739
4.9582623433
4.71141488846
4.48840804403
4.2217165281
4.06095516452
3.86986973516
3.65640438475
3.44198424007
3.32904068682
3.15592229881
3.01049618608
2.84124573199
2.68391960626
2.54838780732
2.37362481109
2.2645896865
2.12523042873
1.98636070444
1.83726794042
1.66844322244
1.62504783356
1.45551700954
1.39528646745
1.31592577117
1.15941854317
1.06912057722
0.883621176829
0.866642047882
0.77636806419
0.674185832709
0.567558031535
0.481761493676
0.393685955253
0.332821055973
0.294111418581
0.211957611782
0.12138610691
0.040933245192
-0.0834452774207
-0.0911813433259
-0.173656762814
-0.178849398284
-0.269614339015
-0.274189437998
-0.312459154014
-0.38815484051
-0.451204288214
-0.491015307216
-0.580409284991
-0.57073433035
-0.595837348551
-0.641635538651
-0.683453899522
-0.677238518246
-0.694486757889
-0.727134113539
-0.785050601329
-0.776156309715
-0.861621206886
-0.905191091656
-0.922152446616
-1.00109459509
-1.07665885859
-1.06254288994
-1.12039812159
-1.170181234
-1.16940307242
-1.2265133363
-1.24281198997
-1.17231926751
-1.26286859518
-1.2757743815
-1.33561535866
-1.26051864602
-1.30650255224
-1.30637883817
-1.25930495566
-1.32861746113
-1.24385416287
-1.31399437144
-1.2859085867
-1.26780577755
-1.29964744066
-1.25781779785
-1.26280314134
-1.31977921938
-1.35375808265
-1.32682448293
-1.30927212731
-1.3230076262
-1.35888318467
-1.37308562512
-1.33155140896
-1.3944875802
-1.39434480359
-1.413453378
-1.41462025141
-1.45381558808
-1.44100570059
-1.43817904896
-1.46086285109
-1.46452173471
-1.49609842099
-1.54572292055
-1.53419447858
-1.54312119924
-1.53181941981
-1.56552748052
-1.58779378427
-1.61005310862
-1.64482352438
-1.6397458757
-1.63851300484
-1.66892945372
-1.6419244634
-1.59685770351
-1.61605947448
-1.62574548843
-1.59510208829
-1.65833728292
-1.57760804608
-1.61398805838
-1.55671662403
-1.55360310021
-1.56420455726
-1.50607036213
-1.52737096995
-1.49522243052
-1.48605711533
-1.47881100689
-1.48828912967
-1.53013906957
-1.52540080544
-1.52896121075
-1.48882222883
-1.48683269762
-1.47821651532
-1.47922309775
-1.4634923278
-1.45870838307
-1.53227619231
-1.52531276907
-1.54807330699
-1.48669167095
-1.5506045665
-1.54084715859
-1.52723169451
-1.5509233345
-1.52188839432
-1.5454470656
-1.58223971332
-1.56173193123
-1.57877207671
-1.57835294629
-1.61704653732
-1.63178113029
-1.55491110109
-1.54399544769
-1.53536062115
-1.54393201338
-1.57019110685
-1.475957853
-1.50100116819
-1.50353002658
-1.49004420643
-1.51422692369
-1.51469158213
-1.52622394954
-1.48767816159
-1.55456699627
-1.5634335638
-1.52378679056
-1.48497671994
-1.54955512862
-1.55117634513
-1.51740418281
-1.5255135769
-1.54589453245
-1.53605790196
-1.52525262172
-1.52407091162
-1.51060619529
-1.53035680729
-1.58621154925
-1.54769379192
-1.57248290029
-1.51758419031
-1.53453836552
-1.5833839629
-1.51342288008
-1.56394257084
-1.57449529397
-1.53436850328
-1.59113082741
-1.52391083722
-1.58860648255
-1.53449558806
-1.56752425
-1.57129865129
-1.56712357866
-1.58003516213
-1.58499731223
-1.56443662605
-1.57420290727
-1.48008818395
-1.52643527861
-1.48478970998
-1.50777547538
-1.49597035166
-1.48127132608
-1.51796344563
-1.48134764564
-1.47698485181
-1.49536617765
-1.49737272223
-1.50828134778
-1.52436073165
-1.50191806834
