1.12936050778e+22
170661.169955
103479.691466
2223968.97222
8524.42079295
1178.58488239
308.293125873
107.072285906
44.4729823751
21.0556186885
10.8848299155
6.069411513
3.59401702794
2.23720071881
1.45289638432
0.978628784544
0.680975042304
0.48770226928
0.358485199035
0.26941144037
0.206735012786
0.161651678775
0.128528176387
0.103753115682
0.0849317765089
0.0704335198646
0.0590978559841
0.050123519564
0.0429391505395
0.0371226132467
0.0323658459848
0.028437344692
0.0251646128149
0.022418444614
0.0200982800579
0.0181224031983
0.0164289232676
0.0149677464815
0.0137017708322
0.012596861181
0.011630302016
0.010778047518
0.0100249918217
0.00935618610084
0.00876051395063
0.00822746499602
0.00774875766322
0.00731826780676
0.00692932559393
0.00657745083584
0.00625766722545
0.00596689084648
0.00570127835411
0.00545876541781
0.00523650494695
0.00503267404995
0.00484542677795
0.00467291938156
0.00451368457157
0.00436672814753
0.00423072343833
0.00410480461428
0.00398830783084
0.0038800959012
0.00377965791028
0.0036861500428
0.00359920819329
0.00351820157088
0.00344280444973
0.00337247943287
0.00330703460711
0.00324572408278
0.00318859193882
0.00313531726734
0.00308555754489
0.00303900373488
0.00299564576966
0.00295503207875
0.00291723294547
0.00288199299981
0.00284900500038
0.00281820017368
0.00278947921854
0.0027628265143
0.00273796655704
0.00271487210636
0.0026935534881
0.00267380080802
0.00265546729621
0.00263856399962
0.00262298394881
0.00260886091764
0.00259573500363
0.00258402804365
0.00257330150643
0.00256369090735
0.00255512240635
0.00254749399237
0.0025408109833
0.00253502794964
0.0025301312176
0.00252610526231
0.0025229477307
0.00252058296528
0.00251894209051
0.0025179143231
0.00251758610029
0.00251793660933
0.00251897769326
0.0025205657198
0.00252287533259
0.00252571523795
0.00252910173048
0.00253304842952
0.00253759341448
0.002542605928
0.00254816793618
0.0025540676758
0.00256060174198
0.00256754640326
0.00257501119714
0.00258283817338
0.00259110429571
0.00259979499741
0.00260901740563
0.00261862944453
0.00262864285209
0.00263909656386
0.00264989514937
0.00266111220989
0.00267273429883
0.00268474172788
0.00269704979757
0.00270962321531
0.00272267670435
0.00273605553927
0.00274980231373
0.00276405454846
0.0027784485745
0.00279329593558
0.00280855487114
0.0028241435989
0.00284005191589
0.00285625148397
0.00287275189506
0.0028895683578
0.00290678214746
0.00292427067673
0.00294213853822
0.00296053563033
0.00297914284925
0.00299790696078
0.00301692985783
0.00303630264308
0.00305602647209
0.00307608212048
0.0030964053199
0.00311694505242
0.00313784442656
0.00315886555124
0.00318049274419
0.00320241572302
0.00322455206959
0.00324701495407
0.00326968808999
0.0032925724095
0.00331571857093
0.00333945344966
0.00336314164973
0.00338699611291
0.00341143104724
0.00343627646059
0.00346126691068
0.00348655289223
0.00351219066232
0.00353801048807
0.00356425732655
0.00359068860971
0.00361754901881
0.00364459203986
0.00367212292985
0.00369977884868
0.00372778271596
0.00375604919207
0.00378458790721
0.00381346716363
0.00384260965253
0.00387193097813
0.00390172207474
0.00393153111066
0.00396155337913
0.0039919812027
0.00402286546894
0.00405392664315
0.00408540696993
0.00411702489902
0.00414907551726
0.00418147446522
0.00421416395995
0.00424722151013
0.00428060784909
0.00431428799677
0.00434847505642
0.00438315059743
0.00441795279784
0.00445330146819
0.0044885063465
0.00452452888853
0.00456083004798
0.0045976922428
0.00463487709003
0.00467214236809
0.00470988396465
0.00474794770305
0.00478668482335
0.00482588001434
0.00486570996804
0.0049052911087
0.00494545795803
0.00498612161639
0.00502727235535
0.00506868310248
0.00511053918801
0.00515258532223
0.00519538738206
0.00523847516337
0.0052820399687
0.00532595465598
0.00537033147189
0.00541515285951
0.00546010268091
0.00550564691121
0.00555180294426
0.0055983250744
0.00564543777135
0.00569283206543
0.00574024094773
0.00578856467856
0.00583654945087
0.00588474623324
0.00593420396771
0.00598405304922
0.00603388189904
0.0060843481194
0.00613540735458
0.0061866501758
0.00623873637108
0.00629069773685
0.00634319457719
0.00639661423275
0.00645034164147
0.00650369856439
0.00655821984104
0.00661310857894
0.0066680980983
0.00672403516053
0.00678078517555
0.00683762801344
0.00689489480586
0.00695210627169
0.00701052994927
0.00706960088227
0.0071289087398
0.00718839182099
0.00724961011093
0.00731069903952
0.00737215082219
0.00743427886418
0.00749667180394
0.00755979666224
0.0076235478188
0.00768747179481
0.00775293410396
0.00781792087779
0.00788370262232
0.00794998407225
0.00801775064865
0.00808477027834
0.00815243517062
0.00822169612369
0.00829089944147
0.00836182218835
0.00843298538183
0.00850498464098
0.00857697192382
0.00864888038961
0.00872233696428
0.0087966963766
0.00887072937496
0.00894695148639
0.00902310450921
0.00910042762561
0.00917820030407
0.00925614834828
0.00933604150431
0.00941679152383
0.00949793636336
0.00957917110785
0.00966211641628
0.00974674754338
0.00983160891373
0.00991708455777
0.0100036662481
0.0100900706213
0.0101785038914
0.0102665070231
0.0103557242307
0.0104464273991
0.0105378640895
0.0106300653377
0.010722857601
0.01081738084
0.0109122397151
0.0110069183079
0.0111039469987
0.0112013637607
0.0113003060016
0.0113993590413
0.0115011856721
0.0116020863416
0.0117044705606
0.0118071225074
0.0119100743164
0.0120156692378
0.0121213770965
0.012228475128
0.0123366292423
0.0124455358631
0.0125551105453
0.0126655560264
0.0127775995291
0.0128896413263
0.0130025016712
0.0131159820888
0.013231103509
0.0133494419434
0.0134682520659
0.013586456138
0.0137070748048
0.0138293485113
0.0139502200957
0.0140712844497
0.0141951251519
0.0143223720909
0.0144469982121
0.0145762436031
0.0147067574771
0.014836051987
0.0149668260572
0.0151021604746
0.0152370031106
0.0153735836171
0.0155100530569
0.0156475440662
0.0157877430249
0.0159290739275
0.0160723321761
0.0162176888177
0.0163638023289
0.0165130072536
0.016662339445
0.0168125485606
0.0169632653154
0.0171136277081
0.0172657319014
0.0174226125318
0.0175790598553
0.0177375756458
0.0179010023712
0.018062066755
0.0182263859281
0.0183934717196
0.0185600612065
0.0187268398751
0.0188961576372
0.019067216805
0.019238918607
0.0194156082841
0.0195989550795
0.0197774988525
0.0199597437741
0.0201424175031
0.020325111159
0.0205107724893
0.0206995773919
0.0208896329698
0.021080616938
0.0212717841482
0.021469385674
0.0216662765036
0.0218634090004
0.0220652415418
0.0222661893931
0.0224726069465
0.022674404759
0.0228813654552
0.0230954702394
0.0233033996415
0.0235169303179
0.0237288362749
0.0239485953719
0.0241684994169
0.0243878101059
0.0246146430284
0.0248456442761
0.0250751823064
0.0253104587319
0.0255396329888
0.0257763160713
0.026012798791
0.026252594991
0.0264943607272
0.0267333898442
0.0269812485044
0.0272277095511
0.0274762976344
0.0277284632462
0.0279809534673
0.0282328541666
0.0285029851161
0.0287607238986
0.0290357195264
0.0292993344016
0.029573996958
0.0298451809606
0.0301235317763
0.0304100047073
0.0306964594048
0.0309900453989
0.0312865829006
0.0315779415176
0.031871685177
0.032174837255
0.0324805581657
0.0327855215214
0.0330927877487
0.0334101717931
0.0337225992219
0.0340428766527
0.0343652099039
0.0346875656023
0.0350120192592
0.0353470394593
0.0356810639482
0.0360194096239
0.036369651798
0.036720753856
0.0370684630236
0.037424689662
0.037786169441
0.0381436128711
0.0385106239548
0.0388770563629
0.0392569910662
0.039623081958
0.0399982351118
0.0403744790672
0.0407550590112
0.0411379928584
0.0415392679229
0.0419386780233
0.0423357194132
0.042739062875
0.0431393070698
0.043533623716
0.0439509334881
0.0443704247813
0.0447872467215
0.0452121619834
0.0456261244706
0.0460579102208
0.0464991902572
0.0469445241286
0.0473888013585
0.0478303155811
0.0482764091058
0.0487363767085
0.0491794090874
0.0496393702068
0.0501124580061
0.0505852267609
0.0510549507038
0.0515522909125
0.052042937098
0.0525289240112
0.0530143860617
0.053502388508
0.0540184484399
0.0545388735565
0.0550475369072
0.0555597162774
0.0560739901141
0.0565900802822
0.057135988391
0.0576828523412
0.0582365852888
0.0587962179639
0.0593629657382
0.0599269138644
0.0604982515072
0.0610908108212
0.0616836537707
0.0622734439879
0.0628579677105
0.0634535210212
0.0640449527063
0.0646462350205
0.0652529519696
0.0658554662823
0.0664906133832
0.0671090480303
0.067741018609
0.0684043404758
0.0690595946362
0.0697249089345
0.0704184316954
0.0710957009306
0.07177466182
0.0724728726888
0.0731570760835
0.0738712013969
0.0746021273756
0.0752998768718
0.0760140925034
0.0767499220597
0.0775017942782
0.0782594220479
0.0790116772351
0.0797642465937
0.0805631012936
0.0813411554953
0.0821407700255
0.0829374368283
0.0837690597602
0.0846010593249
0.0854489825085
0.0862849320121
0.0871348887736
0.0879613198766
0.0888131154117
0.0896797745465
0.0905753260667
0.0914442904826
0.0923288864185
0.0932049751618
0.0941020114519
0.0950169667557
0.0959731242533
0.096918198083
0.0978398091897
0.0988375824715
0.0998185943114
0.100799193516
0.101756426863
0.102758712912
0.103780242606
0.104800731067
0.105827248295
0.106832970493
0.107885244001
0.108978534273
0.110153389152
0.111313629618
0.112441636554
0.113533374089
0.114637977755
0.115836769783
0.117067205878
0.118300989597
0.119436522564
0.120608280797
0.121806925422
0.123006997824
0.124229962016
0.125460579027
0.126695996692
0.127957630619
0.129201389036
0.130463009601
0.131738240783
0.133080684643
0.134406261279
0.135721551239
0.137097484297
0.138508461818
0.139958154709
0.141368592646
0.142729384024
0.144216817191
0.145645941798
0.147051079135
0.148542853706
0.150046920674
0.151481631847
0.153042016297
0.154548607301
0.15608436621
0.157597982343
0.159205406687
0.160775497364
0.162440424188
0.164126995409
0.165782033945
0.167386894075
0.169040680935
0.170765477213
0.1725576158
0.174253845188
0.176105068612
0.178042065975
0.1797907178
0.1816751185
0.183543678026
0.185486506884
0.187336065091
0.189218803318
0.191194305429
0.193156298407
0.195310472365
0.197296035022
0.19936416528
0.201433055724
0.203507507423
0.205792155675
0.207860907565
0.210183390874
0.212447258078
0.214692424056
0.216803881964
0.219085532827
0.221385021574
0.223657477112
0.225991117506
0.228185538415
0.230611354171
0.233043818364
0.235382882077
0.237914534388
0.240570088713
0.242988897793
0.245424658281
0.247918696266
0.250632019961
0.253362219809
0.256197644164
0.258958762875
0.261643100218
0.264350537667
0.266968170994
0.269916768845
0.27290783173
0.275767256997
0.278560361437
0.28170021479
0.284583933283
0.28764832626
0.290609132294
0.293638347994
0.297109542342
0.299985055496
0.303207078435
0.306022082966
0.309360983915
0.312547396395
0.315890573758
0.31924201089
0.32241384915
0.325558956827
0.329360698065
0.332637687153
0.335707564659
0.338875749319
0.342361636348
0.345675784713
0.348821588178
0.352287846898
0.355854690074
0.359289587017
0.362986421848
0.366650780419
0.370354090005
0.374040940399
0.377548637152
0.380960409845
0.384750728719
0.388236187588
0.392006839488
0.396073023311
0.399369877689
0.403460067148
0.40748064669
0.410982806925
0.415121989707
0.419207233024
0.423538738928
0.42726340697
0.431245278381
0.435429994821
0.439845609415
0.444811308371
0.449090592328
0.453375207765
0.457487265857
0.46228525864
0.466999639352
0.471500742646
0.476967554877
0.481547867926
0.485593164661
0.490582650232
0.496380819058
0.501228614764
0.50692355711
0.512023348609
0.517589900776
0.523392666571
0.528513125968
0.534823732725
0.539882788171
0.546038859198
0.55173691333
0.557427951512
0.563488429148
0.569498399345
0.575294560987
0.582114403486
0.588641479804
0.596026065078
0.601863207649
0.608528494401
0.615570819419
0.622258328195
0.629321829564
0.636202786366
0.642453563738
0.649818808829
0.657441626075
0.664164663321
0.672180355326
0.679663641851
0.687072210105
0.694418885627
0.701767131652
0.71046484976
0.718722258326
0.726130395098
0.734586881014
0.74264600209
0.750413349132
0.758264852846
0.766653800606
0.775608837261
0.783950210058
0.793277328321
0.802743284693
0.813408394727
0.821966079855
0.832038302042
0.840814445072
0.850994598796
0.862123150252
0.871474258495
0.88088230248
0.893090875981
0.904310113747
0.915104802916
0.928723220192
0.940552045558
0.954145352854
0.96581767544
0.977848544072
0.990433528853
1.00542474137
1.01925995712
1.03284270727
1.04827393773
1.06398349097
1.07739795122
1.08885937217
1.10109113158
1.11510313843
1.12782388096
1.14538734641
1.16085652073
1.17685873029
1.1930848295
1.20685073183
1.22578012914
1.24316669965
1.25885494159
1.27639742765
1.2942282722
1.310714204
1.32706167145
1.3437445506
1.36153068824
1.38197070422
1.3992142624
1.41725843839
1.43232756486
1.45073325366
1.47017020788
1.48283892702
1.50069299057
1.52114600574
1.53475388968
1.55660411472
1.57402490558
1.59385895114
1.61551588661
1.63338283488
1.65431556562
1.67238010605
1.70018030244
1.72158297221
1.73990420937
1.76363830944
1.78382583735
1.81419223764
1.83965829553
1.86886714693
1.88757986843
1.90867185618
1.93520461886
1.96162585961
1.98934243121
2.01479819245
2.04151141846
2.07082336246
2.09337254319
2.12091643244
2.14530934196
2.17552328232
2.19439770014
2.21950189286
2.24836260606
2.2847841408
2.31923115943
2.35756307971
2.38413517132
2.42263052589
2.46349782479
2.49613593875
2.53041860845
2.56430798389
2.5972708494
2.63019844143
2.65892441066
2.68931629459
2.71502030731
2.76117377102
2.78798067822
2.82887176571
2.86048492734
2.89306025016
2.93899736485
2.96310633708
3.00049892558
3.04416518655
3.08774460962
3.12234393193
3.16846960116
3.19969529269
3.26412815403
3.29818846233
3.32723345567
3.3735751723
3.41334191565
3.45833383147
3.49681446501
3.52831423061
3.58774238718
3.62318908671
3.67308790993
3.69955746083
3.73385462909
3.79381326469
3.83169550291
3.89400606428
3.95057341396
4.01596803478
4.06563148975
4.11385028714
4.18425885168
4.22708019608
4.27937405801
4.32750700931
4.37163684265
4.45251352855
4.52480687253
4.60777540489
4.67785015414
4.75953290819
4.78242356837
4.85354911148
4.98433511168
5.08906886729
5.19822780197
5.2981768874
5.35424850149
5.44710236648
5.51215731407
5.64645621723
5.75670193859
5.86134758727
5.97283380481
6.07335347982
6.15124668932
6.20438507229
6.25855563322
6.3493459389
6.47145138843
6.64554570131
6.77574587611
6.84062757369
6.97664044335
7.12360220527
7.31551852773
7.48627296436
7.68948970914
7.86660941117
7.99493633718
8.08175064972
8.28340381998
8.40775500214
8.48198972246
8.72152235765
8.89804495577
9.08853921536
9.26306320927
9.4451019154
9.56558540042
9.84612452974
10.143378083
10.352969319
10.5123172457
10.7870171793
11.0972516712
11.4765856983
11.860370581
12.1013074434
12.5263262823
12.7364633651
13.1487429564
13.3684565293
13.4351906875
13.8880831743
14.2740470125
14.8802835391
15.0432395485
15.4420900991
15.644142989
16.0854393976
16.5545560992
17.2016215743
17.435037545
18.3334795916
18.7153880474
19.4083829549
20.2563851765
20.5864391714
21.1872368767
21.6257570545
22.5645363639
23.3986057479
24.2287047705
25.1117710511
25.7250244582
26.4677073275
27.6966932545
29.3689311956
30.4095448655
31.9947184454
33.8423620886
34.5507934821
35.8577102807
39.9003103625
42.6972023191
45.5824668269
48.8980231164
53.8999726308
59.4385943977
62.5765267028
63.4330650337
74.9029512614
74.5880247873
79.3160300659
88.1311598758
87.4122270284
93.2494848678
107.217440137
126.198046861
139.564808307
169.995539733
192.585942476
250.160927523
335.886818162
330.694434051
682.017780209
1525.01371165
