0.231931859478
0.204322275019
0.177412550747
0.227875047976
0.188539943502
0.206698762789
1.1069459323
1.15763986612
0.848273317308
1.00672299043
1.08895502396
1.19446374208
1.18970864862
1.22766103731
1.30914428882
1.40197554314
1.4186224696
1.30278579268
1.33005251949
1.38897697658
1.37882079383
1.39564178543
1.43105021638
1.45249499021
1.43395893449
1.47788274896
1.4239145602
1.48383980901
1.51189664619
1.50955856524
1.43582487877
1.43412443788
1.44059482266
1.48575902228
1.48620408687
1.47782165004
1.54460272671
1.56176791753
1.52642135348
1.53875487778
1.53692795371
1.53681209528
1.52052652702
1.54646808043
1.53704776768
1.48899089596
1.49042589785
1.53234213707
1.48911246304
1.49281724385
1.48919562477
1.4948153697
1.49668298917
1.49748380855
1.56580426377
1.54797841361
1.52427254908
1.52426421681
1.52700620955
1.51662199288
1.50418478753
1.49264703384
1.48457581522
1.49956268792
1.53872353607
1.55314987231
1.55220136519
1.55078426542
1.4838096413
1.47472212775
1.45729221118
1.44543381708
1.45010179629
1.45475569674
1.45556443648
1.45086418453
1.3689520555
1.44904423015
1.44730240417
1.44007051492
1.43281678699
1.42270981387
1.41059249081
1.40214761399
1.42733582102
1.43665687883
1.42950169187
1.36600171678
1.41115449657
1.4133587411
1.42072661482
1.42226367087
1.4222083757
1.41534555933
1.41394024249
1.40827145995
1.40618130051
1.40452036488
1.39998016481
1.39053284812
1.33056903724
1.3031505925
1.29303397645
1.28248789452
1.26634392202
1.25735224361
1.24465878724
1.24220815148
1.23865751189
1.22910192286
1.22021765168
1.20713116873
1.2489068622
1.2552344377
1.24904428488
1.24336755096
1.24270333648
1.24558831131
1.2381037911
1.2318763456
1.2210743464
1.20283214391
1.19170419093
1.18958106328
1.18858666147
1.17625351076
1.17116598439
1.16244020783
1.11655045878
1.10137598808
1.13421995392
1.06920635233
1.07724586034
1.06819556778
1.06453610577
1.04862956637
1.06266587682
1.11283998634
1.11346834977
1.11257381723
1.11539065332
1.12338033215
1.12688456557
1.1188860724
1.09073292326
1.08445386755
1.07664502856
1.07108651367
1.05759525762
1.01370967204
1.03198114153
1.02928925111
1.02945000693
1.02606567695
1.01949870767
1.01653135493
1.01328483849
1.00838912296
0.998736761709
0.993360538166
0.984460464727
0.970823674404
0.993763551095
0.939182503168
0.936638390766
0.920266287139
0.910772104764
0.903355742305
0.988877533578
0.910247672737
0.91015139948
0.905649687974
0.900925715877
0.894053542737
0.887162793746
0.87986440557
0.871153863793
0.869881503363
0.870777093307
0.851808066485
0.847782327002
0.842984626373
0.833948635606
0.886034064858
0.888220006204
0.855522261422
0.856193102585
0.851745883025
0.855227138278
0.879557585671
0.866784727171
0.866241046216
0.861469727625
0.860477109236
0.826231943322
0.823632901816
0.819628529273
0.821479701137
0.813423399216
0.800266967009
0.807273725894
0.806058905956
0.803413980859
0.789449330106
0.744578899748
0.738929558395
0.798309460218
0.79192800165
0.786137071175
0.727370464635
0.695544261499
0.694448914008
0.69349681148
0.686560192515
0.687317466406
0.6802555987
0.674647643578
0.673597433856
0.670149968193
0.667954811067
0.661691427009
0.644985394094
0.689008115901
0.686708237892
0.656820782835
0.656083712062
0.657404491865
0.656113853272
0.653445671916
0.649345529175
0.648890351651
0.643471185014
0.620556166779
0.615310936717
0.60286678747
0.38020297347
0.390172955542
0.389249728968
0.369728517279
0.365892023292
0.367437182858
0.466434357148
0.488276614554
0.461063732959
0.462123702209
0.460644291681
0.461285429701
0.460008889858
0
0.499346762814
0.501145643758
0.503093976443
0.504390627867
0.507826437767
0.507564975923
0.506014787581
0.506479152687
0.506279558138
0.509633320732
0.509792972114
0.506521909763
0.501874733308
0
0
0.499653768762
0.498974189011
0.499070781291
0.498804988535
0.500886140251
0.503606706074
0.507283741202
0.511265882852
0
0.517099984244
0.490521629469
0.492470229426
0.492006307979
0
0
0
0.601487068641
0.600289245651
0.594296314303
0.527831744888
0.52905922641
0.530676688453
0.529663463415
0.532056787116
0.535324674139
0.534764108244
0.5377247583
0
0
0.584716000197
0.586296444237
0.59270694807
0.600311809881
0
0.616619394248
0.617509263257
0.61866887614
0.617619837083
0.617802462835
0.622500256701
0.604348846456
0.602925391558
0.604725775686
0.604159853483
0.60457238879
0.632723851064
0.582008621206
0.5844966066
0.587577897477
0.592180814791
0.591551802803
0.590312915369
0.589849575852
0.587692443859
0.592158453343
0.575277571673
0.583122748254
0.582764926619
0.581094363845
0.609592848245
0.607489385762
0.612116235915
0.61932472591
0.622783770203
0.622810401464
0.619161015326
0
0.668287728454
0.66898940414
0
0.672288876809
0.673332229818
0.672077925118
0.660226074238
0.656238589665
0.667690031919
0.668396713429
0.668919566734
0.65782718774
0.642008787786
0.638479841069
0.639406567268
0.639635003963
0.642925223945
0.64941765245
0.318618495837
0.319482566914
0.320207893427
0.656804289105
0.655683515166
0.654904712937
0.652189653935
0.863526380623
0.864265112052
0.734174071891
0.733917954302
0.731548370622
0.737044106162
0.74305745874
0.748633077373
0.68468974934
0.68664699199
0.770656506998
0.772119351535
0.808812922698
0.807735183653
0.751198928155
0.697401571535
0.755670503913
0.752995306014
0.847260926033
0.841633059656
0.832385578295
0.738228371993
0.742919503308
0.746928418703
0.227302350355
0.891481320032
0.222692259071
0.221659450958
0.214057902133
0
0.914011430652
0.917871762595
0.216132961037
0.2145263431
0.21968937803
0.916906543503
0.914484086428
0.293543079193
0.215859158909
0.147160488672
0.232724128532
0.230819757226
0.231344815891
0.202314519661
0.20162179215
0.234870507511
0.235719129952
0.200286187942
0.232914564787
0.230055751373
0.230661724369
0.230454482939
0.195592953574
0.195744049346
0.193184375378
0.230357571273
0.230627730077
0.188262438117
0.932243438973
0.138287124951
0.207177030594
0.212186594781
0.204405611295
0.20468984627
0.205743428519
0.204860220768
0.217426965885
0.211171706806
0.210791562395
0.211359095747
0.209873916077
0.209555148306
0.208774342643
0.201624814235
0.201299556749
0.206012145573
0.210730198169
0.202736328332
0.203093025414
0.202760391903
0.212459747853
0.207761905405
0.20900140869
0.208373137157
0.205819755698
0.204276464832
0.202878156197
0.259961800214
0.260949503861
0.198868259411
0.199363553276
0.224308772821
0.20053787109
0.186972482943
0.186751020055
0.235812843613
0.233509510148
0.188908564746
0.233517001472
0.18963019331
0.236764666921
0.233655470912
0.211776075824
0.205298858839
0.212766491743
0.211185385228
0.210712259969
0.20511076358
0.193537519649
0.196363415659
0.222360318029
0.223993565102
0.225039841325
0.257687117574
0.2578950817
0.226900525524
0.195661379568
0.226486073621
0.266891529962
0.210043635053
0.210813570774
0.207236091976
0.165164616179
0.266478479926
0.23960295379
0.182897677568
0.153368104154
0.157276853865
0.186454661025
0.18730032477
0.169920791952
0.17093554153
0.167685101191
0.168732524515
0.167655883582
0.170627045825
0.203886893381
0.169082604696
0.165823725804
0.197145985937
0.265124532643
0.213247540133
0.208879509466
0.208086846261
0.268574258572
0.213206026723
0.196061170987
0.265543940192
0.147705169762
0.200632668964
0.198944555091
0.213919859264
0.222419666033
0.185885942749
0.223348930808
0.219033581947
0.215000277753
0.214891381162
0.213853845675
0.210010542811
0.20299075696
0.204141408086
0.202537092182
0.212904699694
0.203182010514
0.208773570894
0.210605831705
0.194332990928
0.198409951625
0.216918664373
0.195519859366
0.213041699359
0.206901863705
0.222656294304
0.222997008935
0.201340381504
0.213182545919
0.20027658609
0.201430615135
0.206949459008
0.197335848189
0.200669946924
0.220732674642
0.188762043277
0.187841608606
0.184805196111
0.18522065913
0.220544717332
0.214167224486
0.213719205661
0.195568089615
0.1962802645
0.214807655159
0.207825528283
0.207302491985
0.22445313274
0.201217164761
0.208378476271
0.185693123802
0.222010020679
0.189431175724
0.189639916003
0.220916988991
0.18567573378
0.190424074442
0.196406328732
0.2144384279
0.22085164628
0.218762534285
0.193240652106
0.216003804112
0.217020252244
0.215594312974
0.19765475376
0.198179915365
0.240300779874
0.202901120532
0.198559057016
0.196275960139
0.195822087301
0.21386353707
0.195064712385
0.196812890357
0.211230340065
0.211979511726
0.200273823369
0.184438683886
0.182123973043
0.212651569886
0.200687681922
0.198629009013
0.184686827407
0.184007600584
0.201699383315
0.199914155111
0.186183957767
0.18965366563
0.184919620479
0.233031688516
0.18607857735
0.182047493939
0.185330541342
0.223773685451
0.195514764295
0.195884435351
0.215630633636
0.194389088247
0.195353921832
0.225008844647
0.225565356951
0.225848454322
0.194751415257
0.214765970343
0.193734373422
0.192808696011
0.192936822905
0.194426400745
0.211938259569
0.193852756516
0.215386643974
0.217255212686
0.230524866047
0.21893891659
0.223901227384
0.187950528117
0.21800764839
0.187789980699
0.233148654903
0.237527461799
0.220696210383
0.208901571539
0.21234395947
0.19373050013
0.206825462335
0.205632343323
0.253153711137
0.220996016504
0.167123507114
0.255726463296
0.241829338176
0.248156851123
0.162533697211
0.16892170143
0.242431893178
0.249312272782
0.236933836671
0.168366735332
0.239778449451
0.240258218982
0.244719303724
0.227054848043
0.23333587974
0.22741779213
0.227946034091
0.183485134617
0.185941647169
0.180633814312
0.207579428807
0.217530736408
0.200303704722
0.216230139378
0.232115610311
0.234084132475
0.232987287782
0.235480726061
0.175257153719
0.171734097685
0.172018441632
0.24795915165
0.242826405757
0.241885950141
0.244695189717
0.243215363081
0.240637516894
0.226673468267
0.232352583573
0.229681546051
0.178647979994
0.229521343898
0.227921003784
0.221342733527
0.184774461273
0.227031506568
0.218080410126
0.193218836453
0.198326378433
0.188985267603
0.21891097431
0.220888219765
0.221918517254
0.211367444288
0.196528903872
0.213547437433
0.180332485708
0.178995544808
0.207181816164
0.240690024588
0.24100713417
0.223495097458
0.221487508928
0.192734271649
0.197219862531
0.228136608291
0.195476300365
0.229877482904
0.192733562372
0.217629011171
0.193888406968
0.214660585091
0.209925343793
0.20965907665
0.202808108335
0.204631392605
0.210882063664
0.209928807894
0.199760035335
0.201248732193
0.201429522385
0.213431670019
0.209936375617
0.218294625109
0.217744523921
0.200276876333
0.204025567262
0.214567483421
0.169239286084
0.205413055908
0.204892920957
0.252409143689
0.225040694182
0.208154095055
0.194628187398
0.208882476095
0.190930109041
0.191116244482
0.193335530406
0.188519778794
0.18455709542
0.194583689047
0.178951280604
0.186497041393
0.185305548213
0.181658213766
0.196653443922
0.228616571922
0.230546685147
0.210701688464
0.201549300612
0.201986650222
0.187506199924
0.228549948318
0.185486325506
0.191334631174
0.23108029442
0.183952780201
0.225838646919
0.225741689747
0.189648261172
0.192317626066
0.221821362496
0.192972211901
0.224206288418
0.22314489293
0.189483931541
0.225420964747
0.236082213986
0.236160357212
0.17936926814
0.181130037422
0.203283056332
0.239808098078
0.209178394983
0.239059373324
0.199163205344
0.182977313466
0.185135932943
0.198112728624
0.20229418822
0.196766499925
0.216192676256
0.193990882644
0.194235155695
0.194566726011
0.237854746259
0.242559330356
0.182324800651
0.180173624682
0.257150729816
0.233514753022
0.242299671965
0.255635079272
0.174203188065
0.242531648255
0.164869791047
0.171750973338
0.181236494473
0.176588635755
0.226685265823
0.224248319641
0.206515301871
0.196494933417
0.210754708259
0.164179927042
0.232794879859
0.208635773798
0.202610831195
0.243941968015
0.18051326201
0.233183856855
0.242574240899
0.175879477407
0.179751837867
0.23195420173
0.25538755786
0.189341713951
0.257754110153
0.2266869529
0.220752840514
0.188824678663
0.158681719158
0.188606825978
0.258270487228
0.214431950121
0.181605600584
0.187382594591
0.15464489908
0.197286082183
0.167773524724
0.238805485036
0.154261179424
0.238199908861
0.234710886585
0.271989503328
0.267377794578
0.272341050932
0.148577624058
0.21399829592
0.258192582815
0.213380535062
0.166431040699
0.15846596286
0.254410472641
0.195625951373
0.158017626402
0.200387897276
0.193773822111
0.189150853037
0.20942686594
0.213572164659
0.235968205754
0.240158589399
0.186771340625
0.2056826839
0.240363232509
0.243525821725
0.23647245803
0.236140286077
0.228686678679
0.226723511629
0.225147645868
0.226185617805
0.208542098143
0.216081726603
0.200717108417
0.211851353401
0.207757677175
0.153462459053
0.259752732951
0.203183566484
0.19607713095
0.248458868376
0.193652317143
0.257457881302
0.240915296192
0.220381502065
0.241800637798
0.176308145791
0.235926863248
0.220164147104
0.239520561957
0.176806119961
0.22457051108
0.187244512348
0.186237620507
0.237809638819
0.189155805551
0.249959948412
0.254688836155
0.176231723605
0.257556131624
0.191136864055
0.185710033227
0.26583983705
0.142382799806
0.157403171232
0.214076818595
0.270993892919
0.160595109864
0.145016148406
0.26785116281
0.274807975043
0.142871819704
0.270701132477
0.26525635099
0.263309016689
0.157189958679
0.277906625125
0.309647396998
0.307205932089
0.222930121347
0.232395762344
0.158943718275
0.260952800771
0.161433758236
0.279447023421
0.243943862035
0.239007711595
0.244091643509
0.266644508076
0.256300891417
0.263200089397
0.120835882245
0.291048734086
0.293049231494
0.101621774877
0.283790944647
0.295321024176
0.113437452305
0.276485213089
0.133814495047
0.281199313448
0.286762100837
0.104363601202
0.102400472998
0.297216440784
0.258089544978
0.305098091954
0.149823450935
0.265686602272
0.253085847998
0.268377976682
0.256827741855
0.159754877964
0.137790802219
0.147755992267
0.254435243146
0.260109997632
0.255811119656
0.270670604788
0.151120613422
0.268505399872
0.153206250921
0.268585684831
0.165974440685
0.129610058148
0.253100226735
0.256429851155
0.28103505756
0.134164908799
0.124580240114
0.137598845603
0.271745937887
0.120317571725
0.275596927512
0.228211666282
0.230393729558
0.252355931435
0.129681626493
0.269737931375
0.246748984565
0.213307992392
0.257186351774
0.15580439077
0.255444045867
0.151805656043
0.256650239247
0.161368260938
0.174818724697
0.240839674612
0.241539767921
0.230643586096
0.192284440368
0.262647644353
0.237756622994
0.175636908969
0.248462955374
0.228250910933
0.231340913334
0.215979573882
0.236648839158
0.250060787063
0.207209892398
0.227430225346
0.201549458442
0.217469631985
0.209834179041
0.179645954448
0.200264134662
0.221419950913
0.224818840393
0.219611135829
0.198638746381
0.209911777454
0.226880274323
